\relax 
\citation{baker2007finding}
\citation{baxter1998clone}
\citation{コードクローン検出とその関連技術}
\citation{jiang2007deckard}
\citation{lague1997assessing}
\citation{コードクローンを対象としたリファクタリング}
\citation{コードクローン検出技術の展開}
\citation{roy2014vision}
\citation{コードクローン検出法}
\citation{情報検索技術に基づく高速な関数クローン検出}
\citation{CCFinder}
\citation{CBCD}
\citation{li2012cbcd}
\citation{コードクローン検出とその関連技術}
\citation{コードクローンを対象としたリファクタリング}
\citation{コードクローン検出技術の展開}
\citation{コードクローン検出法}
\citation{クローンタイプ}
\citation{情報検索技術に基づく高速な関数クローン検出}
\citation{コードクローン検出法}
\citation{情報検索技術に基づく高速な関数クローン検出}
\citation{CCFinder}
\citation{情報検索技術に基づく高速な関数クローン検出}
\citation{LSH}
\citation{TF-IDF}
\citation{LSH}
\citation{E2LSH}
\citation{tempero2013towards}
\citation{CBCD}
\citation{li2012cbcd}
\citation{CBCD}
\newlabel{fig:sequence}{{1}{3}}
\citation{higo2007simultaneous}
\citation{CBCD}
\bibstyle{jplain}
\bibdata{reference}
\bibcite{E2LSH}{1}
\bibcite{TF-IDF}{2}
\bibcite{baker2007finding}{3}
\bibcite{baxter1998clone}{4}
\bibcite{コードクローン検出とその関連技術}{5}
\bibcite{コードクローンを対象としたリファクタリング}{6}
\bibcite{higo2007simultaneous}{7}
\bibcite{LSH}{8}
\bibcite{コードクローン検出法}{9}
\bibcite{jiang2007deckard}{10}
\bibcite{コードクローン検出技術の展開}{11}
\bibcite{CCFinder}{12}
\bibcite{lague1997assessing}{13}
\bibcite{CBCD}{14}
\bibcite{li2012cbcd}{15}
\bibcite{クローンタイプ}{16}
\bibcite{roy2014vision}{17}
\bibcite{tempero2013towards}{18}
\bibcite{情報検索技術に基づく高速な関数クローン検出}{19}
