%!PS-Adobe-3.0 EPSF-3.0
%%Title: 
%%Creator: PScript5.dll Version 5.2.2
%%CreationDate: 2/10/2016 15:16:34
%%For: s-numata
%%BoundingBox: 0 0 418 555
%%Pages: 1
%%Orientation: Portrait
%%PageOrder: Ascend
%%DocumentNeededResources: (atend)
%%DocumentSuppliedResources: (atend)
%%DocumentData: Clean7Bit
%%TargetDevice: () (52.3) 320
%%LanguageLevel: 1
%%EndComments

%%BeginDefaults
%%PageBoundingBox: 0 0 418 555
%%ViewingOrientation: 1 0 0 1
%%EndDefaults

%%BeginProlog
%%BeginResource: file Pscript_WinNT_VMErrorHandler 5.0 0
/currentpacking where{pop/oldpack currentpacking def/setpacking where{pop false
setpacking}if}if/$brkpage 64 dict def $brkpage begin/prnt{dup type/stringtype
ne{=string cvs}if dup length 6 mul/tx exch def/ty 10 def currentpoint/toy exch
def/tox exch def 1 setgray newpath tox toy 2 sub moveto 0 ty rlineto tx 0
rlineto 0 ty neg rlineto closepath fill tox toy moveto 0 setgray show}bind def
/nl{currentpoint exch pop lmargin exch moveto 0 -10 rmoveto}def/=={/cp 0 def
typeprint nl}def/typeprint{dup type exec}readonly def/lmargin 72 def/rmargin 72
def/tprint{dup length cp add rmargin gt{nl/cp 0 def}if dup length cp add/cp
exch def prnt}readonly def/cvsprint{=string cvs tprint( )tprint}readonly def
/integertype{cvsprint}readonly def/realtype{cvsprint}readonly def/booleantype
{cvsprint}readonly def/operatortype{(--)tprint =string cvs tprint(-- )tprint}
readonly def/marktype{pop(-mark- )tprint}readonly def/dicttype{pop
(-dictionary- )tprint}readonly def/nulltype{pop(-null- )tprint}readonly def
/filetype{pop(-filestream- )tprint}readonly def/savetype{pop(-savelevel- )
tprint}readonly def/fonttype{pop(-fontid- )tprint}readonly def/nametype{dup
xcheck not{(/)tprint}if cvsprint}readonly def/stringtype{dup rcheck{(\()tprint
tprint(\))tprint}{pop(-string- )tprint}ifelse}readonly def/arraytype{dup rcheck
{dup xcheck{({)tprint{typeprint}forall(})tprint}{([)tprint{typeprint}forall(])
tprint}ifelse}{pop(-array- )tprint}ifelse}readonly def/packedarraytype{dup
rcheck{dup xcheck{({)tprint{typeprint}forall(})tprint}{([)tprint{typeprint}
forall(])tprint}ifelse}{pop(-packedarray- )tprint}ifelse}readonly def/courier
/Courier findfont 10 scalefont def end errordict/handleerror{systemdict begin
$error begin $brkpage begin newerror{/newerror false store vmstatus pop pop 0
ne{grestoreall}if initgraphics courier setfont lmargin 720 moveto errorname
(VMerror)eq{version cvi 2016 ge{userdict/ehsave known{clear userdict/ehsave get
restore 2 vmreclaim}if vmstatus exch pop exch pop PrtVMMsg}if}if systemdict
/showpage get exec(%%[ Error: )print errorname =print(; OffendingCommand: )
print/command load =print( ]%%)= flush}if end end end}dup 0 systemdict put dup
4 $brkpage put bind readonly put/currentpacking where{pop/setpacking where{pop
oldpack setpacking}if}if
%%EndResource
%%BeginProcSet: Pscript_Res_Emul 5.0 0
/defineresource where{pop}{userdict begin/defineresource{userdict/Resources 2
copy known{get begin}{15 dict dup begin put}ifelse exch readonly exch
currentdict 1 index known not{dup 30 dict def}if load 3 -1 roll 2 index put
end}bind readonly def/findresource{userdict/Resources get exch get exch get}
bind readonly def/resourceforall{pop pop pop pop}bind readonly def
/resourcestatus{userdict/Resources 2 copy known{get exch 2 copy known{get exch
known{0 -1 true}{false}ifelse}{pop pop pop false}ifelse}{pop pop pop pop false}
ifelse}bind readonly def end}ifelse
%%EndProcSet
userdict /Pscript_WinNT_Incr 230 dict dup begin put
%%BeginResource: file Pscript_FatalError 5.0 0
userdict begin/FatalErrorIf{{initgraphics findfont 1 index 0 eq{exch pop}{dup
length dict begin{1 index/FID ne{def}{pop pop}ifelse}forall/Encoding
{ISOLatin1Encoding}stopped{StandardEncoding}if def currentdict end
/ErrFont-Latin1 exch definefont}ifelse exch scalefont setfont counttomark 3 div
cvi{moveto show}repeat showpage quit}{cleartomark}ifelse}bind def end
%%EndResource
userdict begin/PrtVMMsg{vmstatus exch sub exch pop gt{[
(This job requires more memory than is available in this printer.)100 500
(Try one or more of the following, and then print again:)100 485
(For the output format, choose Optimize For Portability.)115 470
(In the Device Settings page, make sure the Available PostScript Memory is accurate.)
115 455(Reduce the number of fonts in the document.)115 440
(Print the document in parts.)115 425 12/Times-Roman[/GothicBBB-Medium-RKSJ-H
dup{findfont}stopped{cleartomark}{/FontName get eq{pop cleartomark[
<82B182CC83578387837582CD8CBB8DDD82B182CC8376838A8393835E82C59798977082C582AB82
E988C88FE382CC83818382838A82F0954B977682C682B582DC82B7814288C889BA82CC8A6590DD9
2E8>90 500<82CC88EA82C2814182DC82BD82CD82BB82CC916782DD8D8782ED82B982F08E7792
E882B582BD8CE381418376838A8393836782B592BC82B582C482DD82C482AD82BE82B382A28142>
90 485<A5506F73745363726970748376838D8370836583428356815B836782A982E7814183478
389815B82AA8C798CB882B782E982E682A482C98DC5934B89BB2082F0914991F082B782E98142>
90 455<A58366836F83438358834983768356838783938376838D8370836583428356815B83678
2CC209798977082C582AB82E98376838A8393835E83818382838A2082CC926C82AA90B382B582A2
82B182C682F08A6D944682B782E98142>90 440<A58368834C8385838183938367928682C58E6
7977082B382EA82C482A282E9837483488393836782CC909482F08CB882E782B78142>90 425
<A58368834C838583818393836782F095AA8A8482B582C48376838A8393836782B782E98142>90
410 10 0/GothicBBB-Medium-RKSJ-H}{cleartomark}ifelse}ifelse showpage
(%%[ PrinterError: Low Printer VM ]%%)= true FatalErrorIf}if}bind def end
version cvi 2016 ge{/VM?{pop}bind def}{/VM? userdict/PrtVMMsg get def}ifelse
%%BeginResource: file Pscript_Win_Basic 5.0 0
/d/def load def/,/load load d/~/exch , d/?/ifelse , d/!/pop , d/`/begin , d/^
/index , d/@/dup , d/+/translate , d/$/roll , d/U/userdict , d/M/moveto , d/-
/rlineto , d/&/currentdict , d/:/gsave , d/;/grestore , d/F/false , d/T/true ,
d/N/newpath , d/E/end , d/Ac/arc , d/An/arcn , d/A/ashow , d/D/awidthshow , d/C
/closepath , d/V/div , d/O/eofill , d/L/fill , d/I/lineto , d/-c/curveto , d/-M
/rmoveto , d/+S/scale , d/Ji/setfont , d/Lc/setlinecap , d/Lj/setlinejoin , d
/Lw/setlinewidth , d/Lm/setmiterlimit , d/sd/setdash , d/S/show , d/LH/showpage
, d/K/stroke , d/W/widthshow , d/R/rotate , d/L2? false/languagelevel where{pop
languagelevel 2 ge{pop true}if}if d L2?{/xS/xshow , d/yS/yshow , d/zS/xyshow ,
d}if/b{bind d}bind d/bd{bind d}bind d/xd{~ d}bd/ld{, d}bd/bn/bind ld/lw/Lw ld
/lc/Lc ld/lj/Lj ld/sg/setgray ld/ADO_mxRot null d/self & d/OrgMx matrix
currentmatrix d/reinitialize{: OrgMx setmatrix[/TextInit/GraphInit/UtilsInit
counttomark{@ where{self eq}{F}?{cvx exec}{!}?}repeat cleartomark ;}b
/initialize{`{/Pscript_Win_Data where{!}{U/Pscript_Win_Data & put}?/ADO_mxRot ~
d/TextInitialised? F d reinitialize E}{U/Pscript_Win_Data 230 dict @ ` put
/ADO_mxRot ~ d/TextInitialised? F d reinitialize}?}b/terminate{!{& self eq
{exit}{E}?}loop E}b/suspend/terminate , d/resume{` Pscript_Win_Data `}b U `
/lucas 21690 d/featurebegin{countdictstack lucas[}b/featurecleanup{stopped
{cleartomark @ lucas eq{! exit}if}loop countdictstack ~ sub @ 0 gt{{E}repeat}
{!}?}b E/snap{transform 0.25 sub round 0.25 add ~ 0.25 sub round 0.25 add ~
itransform}b/dsnap{dtransform round ~ round ~ idtransform}b/nonzero_round{@ 0.5
ge{round}{@ -0.5 lt{round}{0 ge{1}{-1}?}?}?}b/nonzero_dsnap{dtransform
nonzero_round ~ nonzero_round ~ idtransform}b U<04>cvn{}put/rr{1 ^ 0 - 0 ~ -
neg 0 - C}b/irp{4 -2 $ + +S fx 4 2 $ M 1 ^ 0 - 0 ~ - neg 0 -}b/rp{4 2 $ M 1 ^ 0
- 0 ~ - neg 0 -}b/solid{[]0 sd}b/g{@ not{U/DefIf_save save put}if U/DefIf_bool
2 ^ put}b/DefIf_El{if U/DefIf_bool get not @{U/DefIf_save get restore}if}b/e
{DefIf_El !}b/UDF{L2?{undefinefont}{!}?}b/UDR{L2?{undefineresource}{! !}?}b
/freeVM{/Courier findfont[40 0 0 -40 0 0]makefont Ji 2 vmreclaim}b/hfRedefFont
{findfont @ length dict `{1 ^/FID ne{d}{! !}?}forall & E @ ` ~{/CharStrings 1
dict `/.notdef 0 d & E d}if/Encoding 256 array 0 1 255{1 ^ ~/.notdef put}for d
E definefont !}bind d/hfMkCIDFont{/CIDFont findresource @ length 2 add dict `{1
^ @/FID eq ~ @/XUID eq ~/UIDBase eq or or{! !}{d}?}forall/CDevProc ~ d/Metrics2
16 dict d/CIDFontName 1 ^ d & E 1 ^ ~/CIDFont defineresource ![~]composefont !}
bind d
%%EndResource
%%BeginResource: file Pscript_Win_Utils_L1 5.0 0
/rf{N rp L}b/fx{1 1 dtransform @ 0 ge{1 sub 1}{1 add -0.25}? 3 -1 $ @ 0 ge{1
sub 1}{1 add -0.25}? 3 1 $ 4 1 $ idtransform 4 -2 $ idtransform}b/BZ{4 -2 $
snap + +S fx rf}b/rs{N rp C K}b/rc{N rp clip N}b/UtilsInit{}b/setcolorspace{!}b
/scol{[/setgray/setrgbcolor/setcolor/setcmykcolor/setcolor/setgray]~ get cvx
exec}b/colspRefresh{}b/AddFontInfoBegin{/FontInfo 8 dict @ `}bind d/AddFontInfo
{/GlyphNames2Unicode 16 dict d/GlyphNames2HostCode 16 dict d}bind d
/AddFontInfoEnd{E d}bind d
%%EndResource
end
%%EndProlog

%%BeginSetup
[ 1 0 0 1 0 0 ] false Pscript_WinNT_Incr dup /initialize get exec
1 setlinecap 1 setlinejoin
/mysetup [ 72 600 V 0 0 -72 600 V 0 554.74017 ] def 
%%EndSetup

%%Page: 1 1
%%PageBoundingBox: 0 0 418 555
%%EndPageComments
%%BeginPageSetup
/DeviceRGB dup setcolorspace /colspABC exch def
mysetup concat colspRefresh
%%EndPageSetup

0 0 0 1 scol Pscript_WinNT_Incr begin
%%BeginResource: file Pscript_T3Hdr 5.0 0
{version cvi 2016 ge{32/FontType resourcestatus{pop pop true}{false}ifelse}
{false}ifelse}exec/Is2016andT32? exch def/T32DefSBCMap{/CIDInit/ProcSet
findresource begin 10 dict begin begincmap/CIDSystemInfo 3 dict dup begin
/Registry(Adobe)def/Ordering(Identity1)def/Supplement 0 def end def/CMapType 0
def/WMode 0 def 1 begincodespacerange<00><ff>endcodespacerange 1 begincidrange
<00><ff>0 endcidrange endcmap/DrvSBCMap currentdict/CMap defineresource pop end
end}bind def Is2016andT32?{T32DefSBCMap}def/T32RsrcBegin{Is2016andT32?{
/BitmapFontInit/ProcSet findresource begin}if}bind def/T32RsrcEnd{Is2016andT32?
{end}if}bind def/AddT32Char{6 1 roll 0 get 7 1 roll pop pop 5 1 roll pop
findfont/TT32R get addglyph}bind def/AddT3Char{findfont dup 5 2 roll 1 index
length 0 gt{cvx 1 index exch 4 exch put dup(imagemask)cvx cvn 5 exch put cvx}
{pop cvx}ifelse 3 -1 roll/CharProcs get 3 1 roll put dup/Encoding get 5 -1 roll
4 index put/Metrics get 3 1 roll put}bind def/AddT3T32Char Is2016andT32?{
/AddT32Char}{/AddT3Char}ifelse load def/GreNewFontT32{5 dict begin exch
/FontMatrix exch def exch/FontBBox exch def exch pop exch pop/CIDFontType 4 def
dup currentdict end/CIDFont defineresource 3 -1 roll dup/DrvSBCMap dup/CMap
resourcestatus{pop pop}{T32DefSBCMap}ifelse 5 -1 roll[exch]composefont dup
length dict copy dup/FID undef begin exch/TT32R exch def currentdict end
definefont/BitmapFontInit/ProcSet findresource begin/TT32R get[14 0 0 0 0 0]<>0
4 -1 roll addglyph end}bind def/GreNewFontT3{11 dict begin pop/FontType 3 def
/FontMatrix exch def/FontBBox exch def/Encoding exch def/CharProcs 257 dict def
CharProcs/.notdef{}put/Metrics 257 dict def Metrics/.notdef 3 -1 roll put
AddFontInfoBegin AddFontInfo AddFontInfoEnd/BuildChar{userdict begin/char exch
def dup/charname exch/Encoding get char get def dup/Metrics get charname 2 copy
known{get aload pop}{pop/.notdef get aload pop}ifelse setcachedevice begin
Encoding char get CharProcs exch 2 copy known{get}{pop/.notdef get}ifelse end
exec end}def currentdict end definefont pop}bind def/GreNewFont{Is2016andT32?
{GreNewFontT32}{GreNewFontT3}ifelse}bind def/UDF3{Is2016andT32?{/BitmapFontInit
/ProcSet findresource begin dup/CIDFont findresource removeall/CIDFont
undefineresource undefinefont end}{pop UDF}ifelse}bind def
%%EndResource
end reinitialize
/TT54b00
[90 0 0 0 0 0 ] 
 256 array 0 1 255 {1 index exch /.notdef put} for 
[0 0 0 0 ] 
[1 90 div 0 0 -1 90 div 0 0 ]
/__TT54b00
GreNewFont
T32RsrcBegin

1
/g14069 [90 0 8 -71 82 8 ] 
/g14069 [74 79 true [1 0 0 1 -8 71 ]  0 0]
[<ffffffff003fffffffc0
ffffffff003fffffffc0
ffffffff003fffffffc0
ffffffff003fffffffc0
ffffffff003fffffffc0
ffffffff003fffffffc0
fe00007f003f80001fc0
fe00007f003f80001fc0
fe00007f003f80001fc0
fe00007f003f80001fc0
fe00007f003f80001fc0
fe00007f003f80001fc0
fe00007f003f80001fc0
ffffffff003fffffffc0
ffffffff003fffffffc0
ffffffff003fffffffc0
ffffffff003fffffffc0
ffffffff003fffffffc0
ffffffff003fffffffc0
fe00007f003f80001fc0
fe00007f003f80001fc0
fe00007f003f80001fc0
fe00007f003f80001fc0
fe00007f003f80001fc0
fe00007f003f80001fc0
ffffffff003fffffffc0
ffffffff003fffffffc0
ffffffff003fffffffc0
ffffffff003fffffffc0
ffffffff003fffffffc0
ffffffff003fffffffc0
fe000000000400001fc0
fe0000f0000780001fc0
fe0007f0000ff0001fc0
fe0007f8000ff0001fc0
fe0003fc000fe0001fc0
fe0001fc001fc0001fc0
fe0001fe001fc0001fc0
fe0000fe003f80001fc0
fe01ffffffffffe01fc0
fe01ffffffffffe01fc0
fe01ffffffffffe01fc0
fe01ffffffffffe01fc0
fe01ffffffffffe01fc0
fe01ffffffffffe01fc0
fe0000007e0000001fc0
fe0000007e0000001fc0
fe0000007e0000001fc0
fe0000007e0000001fc0
fe0000007e0000001fc0
fe0000007e0000001fc0
fe0000007e0000001fc0
fe07fffffffffffc1fc0
fe07fffffffffffc1fc0
fe07fffffffffffc1fc0
fe07fffffffffffc1fc0
fe07fffffffffffc1fc0
fe07fffffffffffc1fc0
fe0000007e0000001fc0
fe000000fe0000001fc0
fe000000ff8000001fc0
fe000000fff800001fc0
fe000001fffe00001fc0
fe000003ffffc0001fc0
fe000007fffff0001fc0
fe00000ffbfffc001fc0
fe00003ff0ffff001fc0
fe0000fff03fffc01fc0
fe0003ffe00fffc01fc0
fe001fffc003ffc01fc0
fe00ffff8000ff801fc0
fe03fffe00007f003fc0
fe03fffc00001f07ffc0
fe01fff000000607ffc0
fe01ffc000000003ff80
fe00ff0000000003ff80
fe00f80000000003ff80
fe00600000000003ff00
fe00000000000003fc00
>
 ]
/TT54b00 AddT3T32Char

2
/g6744 [90 0 5 -73 86 9 ] 
/g6744 [81 82 true [1 0 0 1 -5 73 ]  0 0]
[<00000fe000000000000000
00000fe000000000000000
00000fc000000f00000000
00000fc010000ff0000000
00600fc01c000ff0000000
01e00fc03f000fc0000000
07f00fc03fc01fc0000000
0ff80fc07fc01fc0000000
07fc0fc07f001fc0000000
03fc0fc0ff001fc0000000
01fe0fc0ff001f80000000
00ff0fc1fe001f80000000
00ff0fc1fe003f80000000
007e0fc3fc003f80000000
00380fc0f8003f00000000
00300fc038003f00000000
00000fc010003f00000000
3ffffffffff07f00000000
3ffffffffff07ffffffe00
3ffffffffff07ffffffe00
3ffffffffff0fffffffe00
3ffffffffff0fffffffe00
3ffffffffff0fffffffe00
00003ffc0001fffffffe00
00007ffc0001fffffffe00
0000ffff0001fc003f8000
0001ffff8003fc003f8000
0003ffffc003fe003f8000
0007ffdff003fe003f8000
000fffcff807fe003f8000
001fffc7fe07fe003f8000
007fefc7ff8ffe003f8000
00ffcfc1ff8ffe003f8000
03ff8fc0ff1ffe003f8000
0fff0fc07f1ffe003f8000
1ffe0fc03e3ffe007f8000
7ffc00001c7fbe007f8000
7ff00000047fbf007f0000
3fe00c0000ffbf007f0000
3fc01fc000ff3f007f0000
1f001fe000ff3f007f0000
0c001fc0007e3f00ff0000
00003f80001e3f80fe0000
00003f80000c3f80fe0000
00007f0000001f80fe0000
00007f0000001f81fe0000
7ffffffffff01fc1fe0000
7ffffffffff01fc1fc0000
7ffffffffff00fc1fc0000
7ffffffffff00fe3fc0000
7ffffffffff00fe3f80000
7ffffffffff007e7f80000
0003f801fc0007f7f80000
0003f001fc0007fff00000
0007f001f80003fff00000
000fe003f80003ffe00000
000fe003f80001ffe00000
001fc007f00001ffc00000
001ff807f00000ffc00000
003fff0fe00000ff800000
007fffffe00001ff800000
007fffffc00001ffc00000
00ffffff800003ffe00000
00fe1fffc0000ffff00000
003c07fff0001ffff80000
000c01fffc003ffffc0000
000003fffe00fff7ff0000
000007fffe01ffe3ff8000
00001ffbfe07ffc3ffc000
00007ff0fc1fff81fff000
0001ffe0387fff00fffc00
000fffc019fffc007ffe00
00ffff8007fff8003fff80
3ffffe001ffff0001fff00
1ffff8007fffc00007fe00
1fffe000ffff000003fe00
0fff80007ffe000001fc00
0ffc00007ff80000007c00
0fe000003fe00000003800
040000003f800000001800
000000001e000000000000
0000000010000000000000
>
 ]
/TT54b00 AddT3T32Char

3
/g18237 [72 0 5 -70 69 7 ] 
/g18237 [64 77 true [1 0 0 1 -5 70 ]  0 0]
[<0000018000000000
000001f000000000
000003fe00000000
000003ff00000000
000003fe00000000
000007fc00000000
000007fc00000000
000007fc00000000
00000ff800000000
00000ff800000000
00000ff000000000
00001ff000000000
00001fe000000300
00003fe000000f80
00003fffffffffc0
00007fffffffffe0
00007ffffffffff0
0000fffffffffff8
0000fffffffffffc
0001fffffffffffc
0001fffffffffffc
0003fffffffffff8
0007fe0000001ff0
0007fc0000001ff0
000ffc0000001ff0
001ff80000001ff0
003ff00000003fe0
003ff00000003fe0
007fe00000003fe0
00ffc00000003fe0
01ffc00000007fc0
03ff800000007fc0
07ff000000007fc0
07fe00000000ff80
0ffe00000000ff80
1ffc00000001ff80
3ff800000001ff00
7ff000000003ff00
ffe000000003ff00
7fc000000007fe00
1f8000000007fe00
0f000000000ffc00
02000000000ffc00
00000000001ff800
00000000001ff800
00000000003ff000
00000000007ff000
0000000000ffe000
0000000000ffc000
0000000001ffc000
0000000003ff8000
0000000007ff0000
000000000fff0000
000000001ffe0000
000000003ffc0000
000000007ff80000
00000000fff80000
00000001fff00000
00000003ffe00000
00000007ffc00000
0000001fff800000
0000003fff000000
0000007ffe000000
000001fffc000000
000007fff0000000
00000fffe0000000
00003fffc0000000
0000ffff80000000
0003fffe00000000
001ffffc00000000
001ffff000000000
000fffe000000000
000fff8000000000
0007fe0000000000
0003f80000000000
0001e00000000000
0000800000000000
>
 ]
/TT54b00 AddT3T32Char

4
/g18299 [78 0 11 -59 66 -4 ] 
/g18299 [55 55 true [1 0 0 1 -11 59 ]  0 0]
[<fffffffffffffe
fffffffffffffe
fffffffffffffe
fffffffffffffe
fffffffffffffe
fffffffffffffe
fffffffffffffe
fffffffffffffe
ff0000000001fe
ff0000000001fe
ff0000000001fe
ff0000000001fe
ff0000000001fe
ff0000000001fe
ff0000000001fe
ff0000000001fe
ff0000000001fe
ff0000000001fe
ff0000000001fe
ff0000000001fe
ff0000000001fe
ff0000000001fe
ff0000000001fe
ff0000000001fe
ff0000000001fe
ff0000000001fe
ff0000000001fe
ff0000000001fe
ff0000000001fe
ff0000000001fe
ff0000000001fe
ff0000000001fe
ff0000000001fe
ff0000000001fe
ff0000000001fe
ff0000000001fe
ff0000000001fe
ff0000000001fe
ff0000000001fe
ff0000000001fe
ff0000000001fe
fffffffffffffe
fffffffffffffe
fffffffffffffe
fffffffffffffe
fffffffffffffe
fffffffffffffe
fffffffffffffe
fffffffffffffe
ff0000000001fe
ff0000000001fe
ff0000000001fe
ff0000000001fe
ff000000000000
ff000000000000
>
 ]
/TT54b00 AddT3T32Char

5
/g18314 [86 0 4 -37 83 -29 ] 
/g18314 [79 8 true [1 0 0 1 -4 37 ]  0 0]
[<fffffffffffffffffffe
fffffffffffffffffffe
fffffffffffffffffffe
fffffffffffffffffffe
fffffffffffffffffffe
fffffffffffffffffffe
fffffffffffffffffffe
fffffffffffffffffffe
>
 ]
/TT54b00 AddT3T32Char

6
/g18305 [78 0 4 -63 73 5 ] 
/g18305 [69 68 true [1 0 0 1 -4 63 ]  0 0]
[<000000000000000000
018000000000000000
03e000000000000000
07f000000000000000
0ff800000000000000
1ffe00000000000000
1fff00000000000000
3fff80000000000000
1fffc0000000000000
0ffff0000000000000
07fff8000000000000
01fffc000000000000
00fffe000000000000
007fff000000000000
001fff800000000000
000fffc00000000000
0007ff800000000000
0003ff000000000200
0001fe000000000700
00007c000000000780
000038000000000fe0
000010000000000ff0
000000000000001ff8
000000000000001ff0
000000000000003ff0
000000000000007fe0
000000000000007fe0
00000000000000ffc0
00000000000001ffc0
00000000000001ff80
00000000000003ff80
00000000000007ff00
0000000000000ffe00
0000000000000ffe00
0000000000001ffc00
0000000000003ff800
0000000000007ff000
000000000000fff000
000000000001ffe000
000000000003ffc000
00000000000fff8000
00000000001fff0000
00000000003ffe0000
0000000000fffc0000
0000000001fff80000
0000000007fff00000
000000001fffe00000
000000007fffc00000
00000001ffff800000
0000000ffffe000000
0000003ffffc000000
000003fffff8000000
00003fffffe0000000
0007ffffff80000000
3fffffffff00000000
7ffffffffc00000000
7fffffffe000000000
7fffffff8000000000
7ffffffe0000000000
3fffffe00000000000
3fffff000000000000
3fffe0000000000000
1ff800000000000000
1c0000000000000000
1c0000000000000000
000000000000000000
000000000000000000
000000000000000000
>
 ]
/TT54b00 AddT3T32Char

7
/g7400 [90 0 4 -73 86 8 ] 
/g7400 [82 81 true [1 0 0 1 -4 73 ]  0 0]
[<0000000000001800000000
0007f80000003f00000000
0007f80000003fc0000000
0007f00000007fc0000000
0007f0000000ff80000000
0007f0000000ffc0000000
0007f0000001ffe0000000
0007f0000003fff0000000
0007f0000003fff8000000
0007f0000007fffc000000
0007f000000ffbfe000000
0007f000001ff1ff000000
0007f000003fe0ff800000
0007f000007fe07fe00000
0007f00000ffc03ff00000
0007f00003ff801ffc0000
0007f00007ff000ffe0000
0007f0001ffe0007ff8000
3ffffff87ffc0003ffe000
3ffffff9fff80001fff800
3ffffffffff00000fffe00
3fffffffffe000007fff80
3fffffffff8000001fff80
3fffffffff0000000fff80
3ffffffffffffffffbff00
0007f01ffbfffffff9ff00
0007f01fe3fffffff87e00
0007f00f83fffffff81e00
000ff00e03fffffff80000
000ff00003fffffff80000
000ff00000001fc0000000
000ff00000001fc0000000
000ff00000001fc0000000
001ff00000001fc0000000
001ff00000001fc0000000
001ff00000001fc0000000
003ff8007ffffffffff000
003ffe007ffffffffff000
007fff007ffffffffff000
007fffc07ffffffffff000
007fffe07ffffffffff000
00fffff07ffffffffff000
00fffff87e001fc003f000
01fffffc7e001fc003f000
03fff7fc7e001fc003f000
03fff3f87e001fc003f000
07fff1f87e001fc003f000
07fff0f07e001fc003f000
0ff7f0707e001fc003f000
0ff7f0207e001fc003f000
1fe7f0007e001fc003f000
3fe7f0007e001fc003f000
7fc7f0007ffffffffff000
7fc7f0007ffffffffff000
ff87f0007ffffffffff000
ff87f0007ffffffffff000
7f07f0007ffffffffff000
7e07f0007ffffffffff000
3e07f0007e007fe003f000
3c07f00000007ff0000000
1807f0000000fff8000000
1007f0000001fffc000000
0007f0000001fffe000000
0007f0000003fcff000000
0007f0000007f8ffc00000
0007f000000ff87fe00000
0007f000001ff03ff80000
0007f000007fe01ffe0000
0007f00000ffe00fff8000
0007f00003ffc007fff000
0007f0000fff8003fffe00
0007f0007fff0001ffffc0
0007f007fffe00007fffc0
0007f03ffff800003fff80
0007f03ffff000000fff80
0007f03fffc0000003ff00
0007f01fff00000000ff00
0007f01ffc000000003e00
0007f00ff0000000000600
0007f00f00000000000000
0007f00000000000000000
>
 ]
/TT54b00 AddT3T32Char

8
/g3615 [90 0 10 -71 81 6 ] 
/g3615 [71 77 true [1 0 0 1 -10 71 ]  0 0]
[<00000001fe00000000
00000001fe00000000
00000001fc00000000
00000001fc00000000
00000001fc00000000
00000001fc00000000
00000001fc00000000
1fe00001fc00000000
1fe00001fc00001fe0
1fc00001fc00001fc0
1fc00001fc00001fc0
1fc00001fc00001fc0
1fc00001fc00001fc0
1fc00001fc00001fc0
1fc00001fc00001fc0
1fc00001fc00001fc0
1fc00001fc00001fc0
1fc00001fc00001fc0
1fc00001fc00001fc0
1fc00001fc00001fc0
1fc00001fc00001fc0
1fc00001fc00001fc0
1fc00001fc00001fc0
1fc00001fc00001fc0
1fc00001fc00001fc0
1fc00001fc00001fc0
1fc00001fc00001fc0
1fc00001fc00001fc0
1fffffffffffffffc0
1fffffffffffffffc0
1fffffffffffffffc0
1fffffffffffffffc0
1fffffffffffffffc0
1fffffffffffffffc0
1fffffffffffffffc0
1fc00001fc00001fc0
1fc00001fc00001fc0
1fc00001fc00001fc0
1fc00001fc00000000
00000001fc00000000
00000001fc00000000
00000001fc00000000
00000001fc00000000
00000001fc00000000
ff000001fc000007f8
fe000001fc000007f8
fe000001fc000007f0
fe000001fc000007f0
fe000001fc000007f0
fe000001fc000007f0
fe000001fc000007f0
fe000001fc000007f0
fe000001fc000007f0
fe000001fc000007f0
fe000001fc000007f0
fe000001fc000007f0
fe000001fc000007f0
fe000001fc000007f0
fe000001fc000007f0
fe000001fc000007f0
fe000001fc000007f0
fe000001fc000007f0
fe000001fc000007f0
fe000001fc000007f0
fe000001fc000007f0
fffffffffffffffff0
fffffffffffffffff0
fffffffffffffffff0
fffffffffffffffff0
fffffffffffffffff0
fffffffffffffffff0
fffffffffffffffff0
fe00000000000007f0
fe00000000000007f0
fe00000000000007f0
fe00000000000007f0
fe0000000000000000
>
 ]
/TT54b00 AddT3T32Char

9
/g18258 [78 0 4 -63 75 4 ] 
/g18258 [71 67 true [1 0 0 1 -4 63 ]  0 0]
[<000000000000000000
0000001e0000000000
0000007e0000001000
000001ff0000001f00
000003ff0000001fe0
010003ff8000001ff8
070001ffc000001ff8
0f8000ffc000001ff0
3fc000ffe000003ff0
ffc0007fe000003fe0
ffe0003ff000003fe0
7fe0003ff000003fe0
3ff0001ff800003fe0
3ff0001ff800003fe0
1ff8000ffc00007fe0
1ff8000ffc00007fc0
0ffc0007fe00007fc0
0ffc0007fe00007fc0
07fe0003ff00007fc0
07fe0003fe0000ff80
03ff0001f80000ff80
03ff0001e00000ff80
01ff8000800001ff80
01ff8000000001ff00
00ffc000000001ff00
00ffc000000001ff00
007f8000000003ff00
007e0000000003fe00
00780000000007fe00
00200000000007fe00
00000000000007fc00
0000000000000ffc00
0000000000000ff800
0000000000001ff800
0000000000001ff800
0000000000003ff000
0000000000003ff000
0000000000007fe000
0000000000007fe000
000000000000ffc000
000000000001ff8000
000000000003ff8000
000000000003ff0000
000000000007ff0000
00000000000ffe0000
00000000001ffc0000
00000000003ff80000
0000000000fff80000
0000000001fff00000
0000000003ffe00000
000000000fffc00000
000000003fff800000
000000007ffe000000
00000001fffc000000
00000007fff8000000
0000003ffff0000000
000000ffffc0000000
000007ffff80000000
00003ffffe00000000
0001fffffc00000000
0001fffff000000000
0001ffffc000000000
0000ffff0000000000
00007ffc0000000000
00003ff00000000000
00001f800000000000
00000c000000000000
>
 ]
/TT54b00 AddT3T32Char

10
/g18297 [90 0 6 -62 86 4 ] 
/g18297 [80 66 true [1 0 0 1 -6 62 ]  0 0]
[<0000000001ff00000000
0000000001ff00000000
0000000001fe00000000
0000000001fe00000000
00007fc001fe00000000
00007fc001fe00000000
00007f8001fe00000000
00007f8001fe00000000
00007f8001fe00000000
00007f8001fe00000000
00007f8001fe00000000
00007f8001fe00000000
00007f8001fe00000000
00007f8001fe00000000
00007f8001fe00000000
00007f8001fe00000000
00007f8001fe00000000
00007f8001fe00000000
00007f8001fe00000000
00007f8001fe00000000
00007f8001fe00000000
00007f8001fe00000000
00007f8001fe00000000
00007f8001fe00000000
00007f8001fe00000000
00007f8001fe00000000
00007f8001fe00000000
00007f8001fe00000000
00007f8001fe00000010
00007f8001fe00000030
0000ff8001fe00000078
0000ff0001fe000000fc
0000ff0001fe000000fe
0000ff0001fe000001fe
0000ff0001fe000003ff
0001ff0001fe000007fe
0001fe0001fe00000ffe
0001fe0001fe00001ffc
0003fe0001fe00003ff8
0003fe0001fe00007ff0
0003fc0001fe0000ffe0
0007fc0001fe0001ffc0
0007fc0001fe0003ffc0
000ff80001fe0007ff80
000ff80001fe000fff00
001ff80001fe003ffe00
001ff00001fe007ff800
003ff00001fe01fff000
003fe00001fe03ffe000
007fe00001fe0fffc000
007fc00001fe3fff8000
00ffc00001fefffe0000
01ff800001fffffc0000
01ff800001fffff80000
03ff000001ffffe00000
07ff000001ffff800000
0ffe000001ffff000000
1ffc000003fffc000000
3ff8000003fff0000000
7ff8000000ffc0000000
fff00000007e00000000
ffe00000003800000000
7fc00000000000000000
1f800000000000000000
07000000000000000000
02000000000000000000
>
 ]
/TT54b00 AddT3T32Char
T32RsrcEnd
Pscript_WinNT_Incr begin
%%BeginResource: file Pscript_Text 5.0 0
/TextInit{TextInitialised? not{/Pscript_Windows_Font & d/TextInitialised? T d
/fM[1 0 0 1 0 0]d/mFM matrix d/iMat[1 0 0.212557 1 0 0]d}if}b/copyfont{1 ^
length add dict `{1 ^/FID ne{d}{! !}?}forall & E}b/EncodeDict 11 dict d/bullets
{{/bullet}repeat}b/rF{3 copyfont @ ` ~ EncodeDict ~ get/Encoding ~ 3 ^/0 eq{&
/CharStrings known{CharStrings/Eth known not{! EncodeDict/ANSIEncodingOld get}
if}if}if d E}b/mF{@ 7 1 $ findfont ~{@/Encoding get @ StandardEncoding eq{! T}{
{ISOLatin1Encoding}stopped{! F}{eq}?{T}{@ ` T 32 1 127{Encoding 1 ^ get
StandardEncoding 3 -1 $ get eq and}for E}?}?}{F}?{1 ^ ~ rF}{0 copyfont}? 6 -2 $
! ! ~ !/pd_charset @ where{~ get 128 eq{@ FDV 2 copy get @ length array copy
put pd_CoverFCRange}if}{!}? 2 ^ ~ definefont fM 5 4 -1 $ put fM 4 0 put fM
makefont Pscript_Windows_Font 3 1 $ put}b/sLT{: Lw -M currentpoint snap M 0 - 0
Lc K ;}b/xUP null d/yUP null d/uW null d/xSP null d/ySP null d/sW null d/sSU{N
/uW ~ d/yUP ~ d/xUP ~ d}b/sU{xUP yUP uW sLT}b/sST{N/sW ~ d/ySP ~ d/xSP ~ d}b/sT
{xSP ySP sW sLT}b/sR{: + R 0 0 M}b/sRxy{: matrix astore concat 0 0 M}b/eR/; , d
/AddOrigFP{{&/FontInfo known{&/FontInfo get length 6 add}{6}? dict `
/WinPitchAndFamily ~ d/WinCharSet ~ d/OrigFontType ~ d/OrigFontStyle ~ d
/OrigFontName ~ d & E/FontInfo ~ d}{! ! ! ! !}?}b/mFS{makefont
Pscript_Windows_Font 3 1 $ put}b/mF42D{0 copyfont `/FontName ~ d 2 copy ~ sub 1
add dict `/.notdef 0 d 2 copy 1 ~{@ 3 ^ sub Encoding ~ get ~ d}for & E
/CharStrings ~ d ! ! & @ E/FontName get ~ definefont}b/mF42{15 dict ` @ 4 1 $
FontName ~ d/FontType 0 d/FMapType 2 d/FontMatrix[1 0 0 1 0 0]d 1 ^ 254 add 255
idiv @ array/Encoding ~ d 0 1 3 -1 $ 1 sub{@ Encoding 3 1 $ put}for/FDepVector
Encoding length array d/CharStrings 2 dict `/.notdef 0 d & E d 0 1 Encoding
length 1 sub{@ @ 10 lt{! FontName length 1 add string}{100 lt{FontName length 2
add string}{FontName length 3 add string}?}? @ 0 FontName @ length string cvs
putinterval @ 3 -1 $ @ 4 1 $ 3 string cvs FontName length ~ putinterval cvn 1 ^
256 mul @ 255 add 3 -1 $ 4 ^ findfont mF42D FDepVector 3 1 $ put}for & @ E
/FontName get ~ definefont ! ! ! mF}b/mF_OTF_V{~ ! ~ ! 4 -1 $ ! findfont 2 ^ ~
definefont fM @ @ 4 6 -1 $ neg put 5 0 put 90 matrix R matrix concatmatrix
makefont Pscript_Windows_Font 3 1 $ put}b/mF_TTF_V{3{~ !}repeat 3 -1 $ !
findfont 1 ^ ~ definefont Pscript_Windows_Font 3 1 $ put}b/UmF{L2?
{Pscript_Windows_Font ~ undef}{!}?}b/UmF42{@ findfont/FDepVector get{/FontName
get undefinefont}forall undefinefont}b
%%EndResource
end reinitialize
F /F0 0 /0 F /TT54b00 mF 
/F0S5A F0 [90.102 0 0 -90.102 0 0 ] mFS
F0S5A Ji 
820 97 M <01>S 
910 97 M <02>S  1000 97 M <03>S  1070 97 M <04>S  1150 97 M <05>S  1235 97 M <06>S  1315 97 M <07>S  1405 97 M <08>S  1495 97 M <09>S  1575 97 M <05>S  1660 97 M <0A>S  
T32RsrcBegin

11
/g14088 [90 0 7 -71 83 7 ] 
/g14088 [76 78 true [1 0 0 1 -7 71 ]  0 0]
[<ffffffffe07ffffffff0
ffffffffe07ffffffff0
ffffffffe07ffffffff0
ffffffffe07ffffffff0
ffffffffe07ffffffff0
ffffffffe07ffffffff0
fe00000fe07f000007f0
fe00000fe07f000007f0
fe00000fe07f000007f0
fe00000fe07f000007f0
fe00000fe07f000007f0
ffffffffe07ffffffff0
ffffffffe07ffffffff0
ffffffffe07ffffffff0
ffffffffe07ffffffff0
ffffffffe07ffffffff0
ffffffffe07ffffffff0
fe00000fe07f000007f0
fe00000fe07f000007f0
fe00000fe07f000007f0
fe00000fe07f000007f0
fe00000fe07f000007f0
ffffffffe07ffffffff0
ffffffffe07ffffffff0
ffffffffe07ffffffff0
ffffffffe07ffffffff0
ffffffffe07ffffffff0
ffffffffe07ffffffff0
fe0000000000040007f0
fe0000000000060007f0
fe00000000fe0f8007f0
fe00000000fe1fc007f0
fe00000000fc3ff007f0
fe00000000fc0ff007f0
fe00000000fc07f007f0
fe00000000fc03e007f0
fe0fffffffffffff07f0
fe0fffffffffffff07f0
fe0fffffffffffff07f0
fe0fffffffffffff07f0
fe0fffffffffffff07f0
fe0fffffffffffff07f0
fe00000000fc000007f0
fe00000000fc000007f0
fe00000000fc000007f0
fe00000000fc018007f0
fe00000000fc01c007f0
fe01fffff0fc03f007f0
fe01fffff0fe03f807f0
fe01fffff0fe07f007f0
fe01fffff07e07f007f0
fe01fffff07e0fe007f0
fe01f803f07f1fc007f0
fe01f803f07f1fc007f0
fe01f803f03f3f8007f0
fe01f803f03fff8007f0
fe01fffff03fff0007f0
fe01fffff01ffe0007f0
fe01fffff01ffe0007f0
fe01fffff01ffc0007f0
fe01fffff00ff80007f0
fe000000000ff00807f0
fe000000381ff80e07f0
fe0003fff83ffc1fc7f0
fe1ffffff87ffe1f87f0
fe0ffffff8ffff3f87f0
fe0ffffff9ffffff87f0
fe0fffff83fe7fff07f0
fe0fff000ffc7fff07f0
fe0c00001ff81fff07f0
fe0000007ff00ffe07f0
fe000000ffe007fcfff0
fe000000ffc001fcfff0
fe0000007f800020fff0
fe0000003e000000fff0
fe0000003c0000007ff0
fe000000100000007ff0
fe000000000000007fe0
>
 ]
/TT54b00 AddT3T32Char

12
/g3277 [90 0 4 -73 85 7 ] 
/g3277 [81 80 true [1 0 0 1 -4 73 ]  0 0]
[<000380000000ff80000000
0003f8000000ff00000000
0003fe000000fe00000000
0003f8000000fe00000000
0007f8000000fe00000000
0007f8000000fe00000000
0007f0000000fe00000000
0007f0000000fe00000000
0007f0000000fe00000000
0007f0000000fe00000000
000ff1fffffffffffffc00
000fe1fffffffffffffc00
000fe1fffffffffffffc00
000fe1fffffffffffffc00
000fe1fffffffffffffc00
001fc1fffffffffffffc00
001fc1fffffffffffffc00
001fc0000000fe00000000
003fc0000000fe00000000
003f80000000fe00000000
003f80000000fe00000000
003f80000000fe00000000
007f00000000fe00000000
007f800000ffffffff8000
00ffc03f80ffffffff8000
00ff803f80ffffffff8000
00ff803f80ffffffff8000
01ff803f80ffffffff8000
01ff803f80ffffffff8000
03ff803f80fc00001f8000
03ff803f80fc00001f8000
07ff803f80fc00001f8000
0fff803f80fc00001f8000
0fff803f80fc00001f8000
1fff803f80fc00001f8000
3fff803f80ffffffff8000
3fff803f80ffffffff8000
7fff803f80ffffffff8000
ffbf803f80ffffffff8000
7f3f803f80ffffffff8000
3f3f803f80ffffffff8000
1e3f803f80fc00001f8000
043f803f80fc00001f8000
003f803f80fc00001f8000
003f803f80fc00001f8000
003f803f80fc00001f8000
003f803f80fc00001f8000
003f803f80ffffffff8000
003f803f80ffffffff8000
003f803f80ffffffff8000
003f803f80ffffffff8000
003f803f80ffffffff8000
003f803f80ffffffff8000
003f803f80fc00001f8000
003f803f80fc00001f8000
003f803f80fc00001f8000
003f803f80fc00001f8000
003f803f80fc00001f8000
003f803f80fc00001f8000
003f803f80ffffffff8000
003f803f80ffffffff8000
003f803f80ffffffff8000
003f803f80ffffffff8000
003f803f80ffffffff8000
003f803f80ffffffff8000
003f803f80000000000000
003f803f80000000000000
003f803f80000000000000
003f803f80000000000000
003f803f80000000000000
003f803f80000000000000
003f803fffffffffffff80
003f803fffffffffffff80
003f803fffffffffffff80
003f803fffffffffffff80
003f803fffffffffffff80
003f803fffffffffffff80
003f803fffffffffffff80
003f803f80000000000000
003f803f80000000000000
>
 ]
/TT54b00 AddT3T32Char

13
/g18261 [86 0 5 -76 84 6 ] 
/g18261 [79 82 true [1 0 0 1 -5 76 ]  0 0]
[<00000000000000000000
00000000000000000c00
00000000000000003e00
00000000000000007f00
00000000000000007f80
00000000000000083fc0
000000000000003c1fc0
000000000000007e0fe0
00000000000000ff0ff0
000000000000007f87f8
000000000000003fc3fc
000000000000001fc1fc
0007ffffffffff1fe0fe
0007ffffffffff0ff0f8
0007ffffffffff07f870
0007ffffffffff03f820
0007ffffffffff01fc00
0007ffffffffff01fc00
0007ffffffffff00f800
0007ffffffffff006000
00000000000000004000
00000000000000000000
00000000000000000000
00000000000000000000
00000000000000000000
00000000000000000000
00000000000000000000
00000000000000000000
00000000000000000000
00000000000000000000
00000000000000000000
00000000000000000000
00000000000000000000
ffffffffffffffffff00
ffffffffffffffffff00
ffffffffffffffffff00
ffffffffffffffffff00
ffffffffffffffffff00
ffffffffffffffffff00
ffffffffffffffffff00
ffffffffffffffffff00
000000000ff000000000
000000000ff000000000
000000000ff000000000
000000000ff000000000
000000000fe000000000
000000000fe000000000
000000000fe000000000
000000001fe000000000
000000001fe000000000
000000001fe000000000
000000001fe000000000
000000001fe000000000
000000001fe000000000
000000001fe000000000
000000003fe000000000
000000003fc000000000
000000003fc000000000
000000003fc000000000
000000007fc000000000
000000007f8000000000
000000007f8000000000
00000000ff8000000000
00000000ff0000000000
00000001ff0000000000
00000001ff0000000000
00000003fe0000000000
00000007fe0000000000
00000007fc0000000000
0000000ffc0000000000
0000001ff80000000000
0000003ff00000000000
0000007ff00000000000
000000ffe00000000000
000001ffc00000000000
000003ffc00000000000
000007ff800000000000
000003ff000000000000
000001fe000000000000
000000fc000000000000
00000038000000000000
00000010000000000000
>
 ]
/TT54b00 AddT3T32Char

14
/g18275 [72 0 5 -61 67 2 ] 
/g18275 [62 63 true [1 0 0 1 -5 61 ]  0 0]
[<00000000000001e0
fffffffffffffff0
fffffffffffffff8
fffffffffffffffc
fffffffffffffffc
fffffffffffffffc
fffffffffffffffc
fffffffffffffffc
fffffffffffffffc
0000000000000ff8
0000000000000ff8
0000000000000ff8
0000000000000ff8
0000000000000ff8
0000000000000ff8
0000000000000ff8
0000000000001ff0
0000000000001ff0
0000000000001ff0
0000000000001ff0
0000000000003fe0
0000000000003fe0
0000000000003fe0
0000000000007fe0
0000000000007fc0
0000000000007fc0
000000000000ffc0
000000000000ff80
000000000001ff80
000000000001ff00
000000000003ff00
000000000003fe00
000000000007fe00
00000000000ffc00
00000000001ffc00
00000000001ff800
00000000003ff800
00000000007ff000
0000000000ffe000
0000000001ffc000
0000000003ffc000
0000000007ff8000
000000001fff0000
000000003ffe0000
000000007ffc0000
00000001fff80000
00000003fff00000
0000000fffe00000
0000003fffc00000
000000ffff800000
000003ffff000000
00001ffffc000000
0000fffff8000000
0007ffffe0000000
003fffffc0000000
03ffffff00000000
01fffffc00000000
00fffff000000000
007fffc000000000
003ffe0000000000
003ff80000000000
001fc00000000000
000e000000000000
>
 ]
/TT54b00 AddT3T32Char

15
/g18231 [73 0 4 -56 68 7 ] 
/g18231 [64 63 true [1 0 0 1 -4 56 ]  0 0]
[<00000000ff000000
00000000ff000000
00000000fe000000
00000000fe000000
00000000fe000000
00000000fe000000
00000000fe000000
00000000fe000000
00000000fe000000
00000000fe000000
00000000fe000000
00000000fe000000
00000000fe000000
00000000fe000000
00000000fe000000
00000000fe000000
3fffffffffffffff
3fffffffffffffff
3fffffffffffffff
3fffffffffffffff
3fffffffffffffff
3fffffffffffffff
3fffffffffffffff
00000007fe000000
0000000ffe000000
0000001ffe000000
0000001ffe000000
0000003ffe000000
0000007ffe000000
000000fffe000000
000001fffe000000
000001fefe000000
000003fcfe000000
000007f8fe000000
00000ff8fe000000
00001ff0fe000000
00003fe0fe000000
00007fc0fe000000
0000ff80fe000000
0001ff00fe000000
0003ff00fe000000
000ffe00fe000000
001ffc00fe000000
003ff800fe000000
007ff000fe000000
01ffe000fe000000
03ffc000fe000000
07ff0000fe000000
1ffe0000fe000000
3ffc0000fe000000
fff80000fe000000
7ff00000fe000000
1fc00000fe000000
0f800000fe000000
07000000fe000000
00000001fe000000
000001fffe000000
000000fffe000000
000000fffe000000
000000fffe000000
000000fffc000000
000000fffc000000
000000fff0000000
>
 ]
/TT54b00 AddT3T32Char

16
/g18262 [58 0 11 -67 54 3 ] 
/g18262 [43 70 true [1 0 0 1 -11 67 ]  0 0]
[<ffc000000000
ff8000000000
ff8000000000
ff0000000000
ff0000000000
ff0000000000
ff0000000000
ff0000000000
ff0000000000
ff0000000000
ff0000000000
ff0000000000
ff0000000000
ff0000000000
ff0000000000
ff0000000000
ff0000000000
ff0000000000
ff0000000000
ff0000000000
ff0000000000
ff0000000000
ff0000000000
ff0000000000
ff0000000000
ffe000000000
fffc00000000
ffff80000000
fffff0000000
fffffe000000
ffffff800000
fffffff00000
fffffffc0000
ffffffff8000
ff1fffffe000
ff01fffff800
ff007fffff00
ff000fffffc0
ff0003ffffe0
ff00007fffc0
ff00001fffc0
ff000007ff80
ff000001ff80
ff0000007f00
ff0000001f00
ff0000000600
ff0000000000
ff0000000000
ff0000000000
ff0000000000
ff0000000000
ff0000000000
ff0000000000
ff0000000000
ff0000000000
ff0000000000
ff0000000000
ff0000000000
ff0000000000
ff0000000000
ff0000000000
ff0000000000
ff0000000000
ff0000000000
ff0000000000
ff0000000000
ff0000000000
ff0000000000
ff0000000000
ff0000000000
>
 ]
/TT54b00 AddT3T32Char

17
/g16084 [27 0 3 -70 25 7 ] 
/g16084 [22 77 true [1 0 0 1 -3 70 ]  0 0]
[<000000
000060
0000f0
0001f8
0003f8
0007f0
000fe0
001fc0
003f80
003f80
007f00
00fe00
00fc00
01fc00
03f800
03f000
07f000
07e000
0fc000
0fc000
0f8000
1f8000
1f8000
1f0000
3f0000
3e0000
3e0000
7e0000
7e0000
7c0000
7c0000
7c0000
7c0000
fc0000
fc0000
fc0000
f80000
f80000
f80000
f80000
f80000
fc0000
fc0000
fc0000
7c0000
7c0000
7c0000
7c0000
7e0000
7e0000
3e0000
3e0000
3f0000
3f0000
1f0000
1f8000
1f8000
0fc000
0fc000
07e000
07e000
03f000
03f800
01f800
01fc00
00fe00
007e00
007f00
003f80
001fc0
000fe0
000ff0
0007f8
0003f8
0001f0
0000e0
000040
>
 ]
/TT54b00 AddT3T32Char

18
/g16092 [45 0 3 -62 42 -1 ] 
/g16092 [39 61 true [1 0 0 1 -3 62 ]  0 0]
[<0003ff8000
000fffe000
003ffff800
007ffffe00
01ffffff00
03ffffff80
03ffefff80
07fe00ffc0
0ffc007fe0
0ff8003fe0
1ff0001ff0
1fe0000ff0
3fe0000ff8
3fe0000ff8
3fc00007f8
7fc00007fc
7fc00007fc
7f800003fc
7f800003fc
7f800003fc
7f800003fc
ff800003fe
ff800003fe
ff800003fe
ff800003fe
ff800003fe
ff800003fe
ff800003fe
ff800003fe
ff800003fe
ff800003fe
ff800003fe
ff800003fe
ff800003fe
ff800003fe
ff800003fe
ff800003fe
ff800003fe
ff800003fe
ff800003fe
7f800003fe
7f800003fc
7f800003fc
7f800003fc
7fc00007fc
7fc00007fc
3fc00007f8
3fe00007f8
3fe0000ff8
1ff0000ff0
1ff0001ff0
0ff8003fe0
0ffc007fe0
07ff00ffc0
03ffc7ff80
03ffffff80
01ffffff00
00fffffe00
003ffff800
001ffff000
0003ff8000
>
 ]
/TT54b00 AddT3T32Char

19
/g16090 [18 0 5 -9 13 -1 ] 
/g16090 [8 8 true [1 0 0 1 -5 9 ]  0 0]
[<ff
ff
ff
ff
ff
ff
ff
ff
>
 ]
/TT54b00 AddT3T32Char

20
/g16101 [45 0 5 -62 40 0 ] 
/g16101 [35 62 true [1 0 0 1 -5 62 ]  0 0]
[<0007f00000
003ffe0000
00ffff8000
01ffffc000
03fffff000
07fffff000
0fff3ff800
1ff807fc00
1ff003fe00
3fe001fe00
3fc000ff00
7fc000ff00
7fc0007f00
7f80007f80
7f80007f80
ff80003f80
ff80003fc0
ff80003fc0
ff00003fc0
ff00003fc0
ff00003fc0
ff00003fe0
ff00003fe0
ff00003fe0
ff80003fe0
ff80003fe0
ff80007fe0
7f80007fe0
7fc000ffe0
7fc000ffe0
3fe001ffe0
3ff003ffe0
1ffc0fdfe0
1fffffdfe0
0fffff9fe0
07ffff1fe0
03fffe1fe0
01fffc1fe0
007ff01fe0
0000001fe0
0000003fc0
0000003fc0
0000003fc0
0000003fc0
0000003fc0
0000007f80
7f80007f80
7f80007f80
7f8000ff00
7f8000ff00
7f8001ff00
7fc003fe00
3fe007fe00
3fe00ffc00
1ff83ff800
1ffffff000
0ffffff000
07ffffe000
03ffff8000
01ffff0000
007ffc0000
0007c00000
>
 ]
/TT54b00 AddT3T32Char

21
/g16085 [27 0 2 -70 24 7 ] 
/g16085 [22 77 true [1 0 0 1 -2 70 ]  0 0]
[<000000
180000
3c0000
7e0000
7f0000
3f8000
1fc000
0fe000
07f000
07f000
03f800
01fc00
00fc00
007e00
007f00
003f00
003f80
001f80
000fc0
000fc0
0007c0
0007e0
0007e0
0003f0
0003f0
0001f0
0001f0
0001f8
0001f8
0000f8
0000f8
0000f8
0000fc
0000fc
0000fc
00007c
00007c
00007c
00007c
00007c
00007c
00007c
0000fc
0000fc
0000fc
0000f8
0000f8
0000f8
0000f8
0001f8
0001f8
0001f0
0003f0
0003f0
0003e0
0007e0
0007e0
000fc0
000fc0
001f80
001f80
003f00
003f00
007e00
00fe00
01fc00
01f800
03f800
07f000
0fe000
1fc000
3fc000
7f8000
7f0000
3e0000
1c0000
080000
>
 ]
/TT54b00 AddT3T32Char
T32RsrcEnd
820 207 M <0B>S 
910 207 M <0C>S  1000 207 M <0D>S  1085 207 M <0E>S  1155 207 M <0F>S  1230 207 M <0A>S  1320 207 M <10>S  1380 207 M <11>S  1405 207 M <12>S  1450 207 M <13>S  1470 207 M <14>S  1515 207 M <15>S  
T32RsrcBegin

22
/g16097 [45 0 5 -61 40 0 ] 
/g16097 [35 61 true [1 0 0 1 -5 61 ]  0 0]
[<0fffffffc0
0fffffffc0
0fffffffc0
0fffffffc0
0fffffffc0
0fffffffc0
1fffffffc0
1fc0000000
1fc0000000
1fc0000000
1fc0000000
1fc0000000
1fc0000000
1fc0000000
1fc0000000
1fc0000000
1fc0000000
1fc0000000
1fc0300000
1fc3ff8000
1f8fffe000
3fbffff800
3ffffffc00
3ffffffe00
3fffcfff00
3ffc01ff00
3ff800ff80
3ff0007fc0
3fe0007fc0
3fc0003fc0
3f80003fe0
0000003fe0
0000001fe0
0000001fe0
0000001fe0
0000001fe0
0000001fe0
0000001fe0
0000001fe0
0000001fe0
0000001fe0
0000001fe0
ff00001fe0
ff00001fe0
ff00003fe0
ff00003fe0
ff00003fc0
7f80003fc0
7f80007fc0
7fc0007f80
3fc000ff80
3fe001ff00
1ff003ff00
1ffc0ffe00
0ffffffc00
07fffff800
03fffff000
01ffffe000
00ffff8000
003ffe0000
0003e00000
>
 ]
/TT54b00 AddT3T32Char
T32RsrcEnd
1710 207 M <0B>S 
1800 207 M <0C>S  1890 207 M <12>S  1935 207 M <13>S  1955 207 M <16>S  
T32RsrcBegin

23
/g16111 [60 0 5 -62 55 0 ] 
/g16111 [50 62 true [1 0 0 1 -5 62 ]  0 0]
[<000007fe000000
00007fffe00000
0001fffff80000
0007fffffe0000
001fffffff8000
003fffffffc000
007fffffffe000
00fff801fff000
01ffe0007ff800
03ff80003ff800
03ff00000ffc00
07fe000007fc00
0ffc000007fe00
0ff8000003fe00
1ff0000001ff00
1ff0000001ff00
3fe0000001ff00
3fe0000000ff80
3fc0000000ff80
7fc0000000ff80
7fc0000000ff80
7f800000007f80
7f800000000000
ff800000000000
ff800000000000
ff800000000000
ff800000000000
ff000000000000
ff000000000000
ff000000000000
ff000000000000
ff000000000000
ff000000000000
ff000000000000
ff000000000000
ff800000000000
ff800000000000
ff800000003fc0
7f800000003fc0
7f800000003fc0
7f800000003fc0
7fc00000007fc0
7fc00000007fc0
3fc00000007f80
3fe00000007f80
3fe0000000ff80
1ff0000000ff80
1ff0000001ff00
0ff8000001ff00
0ffc000003ff00
07fe000007fe00
03ff00000ffc00
01ff80001ffc00
01ffe0007ff800
00fffc03fff000
007fffffffe000
003fffffffc000
000fffffff8000
0007fffffe0000
0001fffff80000
00003fffe00000
000001f8000000
>
 ]
/TT54b00 AddT3T32Char

24
/g16114 [50 0 7 -61 47 -1 ] 
/g16114 [40 60 true [1 0 0 1 -7 61 ]  0 0]
[<ffffffffff
ffffffffff
ffffffffff
ffffffffff
ffffffffff
ffffffffff
ffffffffff
ff00000000
ff00000000
ff00000000
ff00000000
ff00000000
ff00000000
ff00000000
ff00000000
ff00000000
ff00000000
ff00000000
ff00000000
ff00000000
ff00000000
ff00000000
ff00000000
ff00000000
ff00000000
ff00000000
ffffffff80
ffffffff80
ffffffff80
ffffffff80
ffffffff80
ffffffff80
ffffffff80
ff00000000
ff00000000
ff00000000
ff00000000
ff00000000
ff00000000
ff00000000
ff00000000
ff00000000
ff00000000
ff00000000
ff00000000
ff00000000
ff00000000
ff00000000
ff00000000
ff00000000
ff00000000
ff00000000
ff00000000
ff00000000
ff00000000
ff00000000
ff00000000
ff00000000
ff00000000
ff00000000
>
 ]
/TT54b00 AddT3T32Char

25
/g16149 [19 0 6 -61 13 -1 ] 
/g16149 [7 60 true [1 0 0 1 -6 61 ]  0 0]
[<fe
fe
fe
fe
fe
fe
fe
fe
fe
00
00
00
00
00
00
00
00
00
00
00
00
fe
fe
fe
fe
fe
fe
fe
fe
fe
fe
fe
fe
fe
fe
fe
fe
fe
fe
fe
fe
fe
fe
fe
fe
fe
fe
fe
fe
fe
fe
fe
fe
fe
fe
fe
fe
fe
fe
fe
>
 ]
/TT54b00 AddT3T32Char

26
/g16154 [45 0 5 -41 40 -1 ] 
/g16154 [35 40 true [1 0 0 1 -5 41 ]  0 0]
[<00007fc000
fe03fff000
fe07fffc00
fe1ffffe00
fe3fffff00
fe7fefff80
feff00ffc0
fffc007fc0
fff8003fc0
fff0001fe0
ffe0001fe0
ffc0000fe0
ffc0000fe0
ff80000fe0
ff80000fe0
ff00000fe0
ff00000fe0
ff00000fe0
fe00000fe0
fe00000fe0
fe00000fe0
fe00000fe0
fe00000fe0
fe00000fe0
fe00000fe0
fe00000fe0
fe00000fe0
fe00000fe0
fe00000fe0
fe00000fe0
fe00000fe0
fe00000fe0
fe00000fe0
fe00000fe0
fe00000fe0
fe00000fe0
fe00000fe0
fe00000fe0
fe00000fe0
fe00000fe0
>
 ]
/TT54b00 AddT3T32Char

27
/g16144 [45 0 5 -61 40 0 ] 
/g16144 [35 61 true [1 0 0 1 -5 61 ]  0 0]
[<0000000fe0
0000000fe0
0000000fe0
0000000fe0
0000000fe0
0000000fe0
0000000fe0
0000000fe0
0000000fe0
0000000fe0
0000000fe0
0000000fe0
0000000fe0
0000000fe0
0000000fe0
0000000fe0
0000000fe0
0000000fe0
0000000fe0
0000000fe0
001ffc0fe0
007fff0fe0
01ffff8fe0
03ffffcfe0
07ffffefe0
0fffffffe0
1ffc07ffe0
1ff003ffe0
3fe000ffe0
3fc0007fe0
7f80007fe0
7f80003fe0
ff00001fe0
ff00001fe0
ff00001fe0
ff00000fe0
ff00000fe0
fe00000fe0
fe00000fe0
fe00000fe0
fe00000fe0
fe00000fe0
fe00000fe0
ff00000fe0
ff00000fe0
ff00001fe0
ff00001fe0
7f00001fe0
7f80003fe0
7f80003fe0
3fc0007fe0
3fe000ffe0
1ff001ffe0
1ff807ffe0
0fffffffe0
07ffffffe0
03ffffefe0
01ffffcfe0
007fff8fe0
001ffe0fe0
0001f00000
>
 ]
/TT54b00 AddT3T32Char

28
/g16145 [45 0 4 -41 41 0 ] 
/g16145 [37 41 true [1 0 0 1 -4 41 ]  0 0]
[<0003ff0000
001fffc000
007ffff000
00fffffc00
03fffffe00
03ffffff00
07fe01ff80
0ff8007f80
1ff0003fc0
1fe0001fc0
3fc0001fe0
3f80000fe0
7f80000fe0
7f80000ff0
7f00000ff0
7ffffffff0
fffffffff0
fffffffff0
fffffffff0
fffffffff0
fffffffff0
ff00000000
ff00000000
ff00000000
7f00000000
7f00000000
7f80000000
7f800007f8
3fc00007f0
3fc0000ff0
3fe0000ff0
1ff0001fe0
1ff8003fe0
0ffe007fc0
07ffffffc0
03ffffff80
01ffffff00
00fffffe00
003ffff800
000fffe000
00007c0000
>
 ]
/TT54b00 AddT3T32Char

29
/g16158 [31 0 5 -41 31 -1 ] 
/g16158 [26 40 true [1 0 0 1 -5 41 ]  0 0]
[<00000fc0
fe007fc0
fe01ffc0
fe07ffc0
fe0fffc0
fe1fffc0
fe3fffc0
fe7ff000
feff8000
fefe0000
fffc0000
fff80000
fff00000
ffe00000
ffc00000
ff800000
ff800000
ff000000
fe000000
fe000000
fe000000
fe000000
fe000000
fe000000
fe000000
fe000000
fe000000
fe000000
fe000000
fe000000
fe000000
fe000000
fe000000
fe000000
fe000000
fe000000
fe000000
fe000000
fe000000
fe000000
>
 ]
/TT54b00 AddT3T32Char
T32RsrcEnd
2615 207 M <17>S 
2675 207 M <17>S  2735 207 M <18>S  2785 207 M <19>S  2805 207 M <1A>S  2850 207 M <1B>S  2895 207 M <1C>S  2940 207 M <1D>S  
T32RsrcBegin

30
/g16117 [22 0 3 -61 19 -1 ] 
/g16117 [16 60 true [1 0 0 1 -3 61 ]  0 0]
[<ffff
ffff
ffff
ffff
ffff
ffff
ffff
ffff
0ff0
0ff0
0ff0
0ff0
0ff0
0ff0
0ff0
0ff0
0ff0
0ff0
0ff0
0ff0
0ff0
0ff0
0ff0
0ff0
0ff0
0ff0
0ff0
0ff0
0ff0
0ff0
0ff0
0ff0
0ff0
0ff0
0ff0
0ff0
0ff0
0ff0
0ff0
0ff0
0ff0
0ff0
0ff0
0ff0
0ff0
0ff0
0ff0
0ff0
0ff0
0ff0
0ff0
0ff0
ffff
ffff
ffff
ffff
ffff
ffff
ffff
ffff
>
 ]
/TT54b00 AddT3T32Char

31
/g16112 [58 0 6 -61 53 -1 ] 
/g16112 [47 60 true [1 0 0 1 -6 61 ]  0 0]
[<ffffffe00000
fffffffc0000
ffffffff8000
ffffffffc000
fffffffff000
fffffffff800
fffffffffc00
ff00007ffe00
ff00000fff00
ff000003ff80
ff000001ffc0
ff000000ffc0
ff0000007fe0
ff0000003fe0
ff0000003ff0
ff0000001ff0
ff0000000ff8
ff0000000ff8
ff0000000ff8
ff00000007fc
ff00000007fc
ff00000007fc
ff00000003fc
ff00000003fc
ff00000003fc
ff00000003fe
ff00000003fe
ff00000003fe
ff00000003fe
ff00000003fe
ff00000003fe
ff00000003fe
ff00000003fe
ff00000003fe
ff00000003fe
ff00000003fc
ff00000003fc
ff00000003fc
ff00000007fc
ff00000007fc
ff00000007fc
ff0000000ff8
ff0000000ff8
ff0000000ff8
ff0000001ff0
ff0000003ff0
ff0000003fe0
ff0000007fe0
ff000000ffc0
ff000001ffc0
ff000003ff80
ff00000fff00
ff00003ffe00
fffffffffc00
fffffffff800
fffffffff000
ffffffffe000
ffffffff8000
fffffffe0000
fffffff00000
>
 ]
/TT54b00 AddT3T32Char
T32RsrcEnd
20 317 M <1E>S 
40 317 M <1F>S  
T32RsrcBegin

32
/g3163 [90 0 2 -73 84 7 ] 
/g3163 [82 80 true [1 0 0 1 -2 73 ]  0 0]
[<0000200000000000000000
00007c0000000000000000
00007f8000000000000000
00007fc000000000000000
00007f0000000000007f80
00007f0000000000007f00
0000fe0000000000007f00
0000fe3fffffff80007f00
0000fe3fffffff80007f00
0000fc3fffffff80007f00
0001fc3fffffff80007f00
0001fc3fffffff80007f00
0001fc3fffffff80007f00
0003f83fffffff9fe07f00
0003f8007f00001fe07f00
0003f8007f00001fc07f00
0007f0007f00001fc07f00
0007f0007f00001fc07f00
0007f0007f00001fc07f00
000fe0007e00001fc07f00
000fe0007e00001fc07f00
001fe0007e00001fc07f00
001fc0007e00001fc07f00
003ff000fe00001fc07f00
003ff000fe00001fc07f00
007fe000fffffc1fc07f00
007fe000fffffc1fc07f00
00ffe000fffffc1fc07f00
00ffe000fffffc1fc07f00
01ffe001fffffc1fc07f00
03ffe001fffffc1fc07f00
03ffe001fffffc1fc07f00
07ffe001fc01fc1fc07f00
0fffe003f801fc1fc07f00
1fffe003f801fc1fc07f00
1fffe003f801fc1fc07f00
3fefe007f801f81fc07f00
7fefe007f001f81fc07f00
7fcfe007f003f81fc07f00
7f8fe00ff003f81fc07f00
3f0fe00ffe03f81fc07f00
1e0fe00fff83f81fc07f00
1c0fe01fffc3f81fc07f00
080fe01ffff7f81fc07f00
000fe03ffffff81fc07f00
000fe03ffffff01fc07f00
000fe07f9ffff01fc07f00
000fe07f87fff01fc07f00
000fe0ff01fff01fc07f00
000fe1fe00fff01fc07f00
000fe3fe007fe01fc07f00
000fe3fc001fe01fc07f00
000fe7fc001fe01fc07f00
000fe7f8003fc01fc07f00
000fe3f0003fc01fc07f00
000fe1f0007fc01fc07f00
000fe0e0007f801fc07f00
000fe04000ff801fc07f00
000fe00000ff001fc07f00
000fe00001ff001fc07f00
000fe00003fe0000007f00
000fe00003fe0000007f00
000fe00007fc0000007f00
000fe0000ff80000007f00
000fe0001ff80000007f00
000fe0003ff00000007f00
000fe0003fe00000007f00
000fe0007fe00000007f00
000fe001ffc00000007f00
000fe003ff800000007f00
000fe007ff000000007f00
000fe00ffe00000000ff00
000fe03ffc0000007fff00
000fe07ff80000007fff00
000fe03ff00000007fff00
000fe01fe00000007ffe00
000fe01fc00000007ffe00
000fe00f000000007ffe00
000fe006000000007ffc00
000fe00400000000000000
>
 ]
/TT54b00 AddT3T32Char

33
/g18174 [90 0 7 -64 82 3 ] 
/g18174 [75 67 true [1 0 0 1 -7 64 ]  0 0]
[<000000003ffe00000000
00000007fffff0000000
0000003ffffffe000000
000001ffffffff800000
000007ffffffffe00000
00000ffffffffff80000
00003ffffffffffc0000
0000ffffe03ffffe0000
0001fffe7800ffff0000
0003fff07e001fff8000
0007ffc07f8007ffc000
000fff007fe001ffe000
001ffc007ff0007ff000
003ff8007fe0003ff800
007ff0007f80001ff800
00ffe000ff80000ffc00
01ffc000ff800007fe00
01ff8000ff800007fe00
03ff0000ff800003ff00
07fe0000ff800001ff00
07fc0000ff000001ff80
0ffc0000ff000000ff80
0ff80001ff000000ff80
1ff00001ff000000ff80
1ff00001ff0000007fc0
1fe00001fe0000007fc0
3fe00001fe0000007fc0
3fc00001fe0000007fc0
3fc00003fe0000003fc0
7fc00003fe0000003fc0
7fc00003fc0000003fe0
7f800003fc0000003fe0
7f800007fc0000003fe0
7f800007fc0000003fe0
7f800007f80000003fc0
ff800007f80000003fc0
ff80000ff80000007fc0
ff00000ff80000007fc0
ff00000ff00000007fc0
ff00000ff00000007fc0
ff80001ff0000000ffc0
7f80001fe0000000ff80
7f80003fe0000000ff80
7f80003fe0000001ff80
7f80003fc0000001ff80
7f80007fc0000003ff00
7fc0007fc0000007ff00
3fc000ff8000000ffe00
3fe001ff8000001ffe00
3fe001ff0000003ffc00
1ff003ff0000007ffc00
1ff807fe000000fff800
0ffc0ffe000001fff000
0ffffffc000007ffe000
07fffffc00000fffc000
03fffff800003fff8000
03fffff00000ffff0000
01fffff00003fffe0000
00ffffe0001ffffc0000
007fff80007ffff80000
003fff0000ffffe00000
000ffc00007fffc00000
0000e000003fff000000
00000000001ffc000000
00000000000ff8000000
000000000007e0000000
00000000000380000000
>
 ]
/TT54b00 AddT3T32Char
T32RsrcEnd
420 317 M ( )S 
510 317 M (!)S  600 317 M <02>S  
820 317 M <07>S 
910 317 M <08>S  1000 317 M <02>S  
T32RsrcBegin

34
/g7751 [90 0 7 -65 82 2 ] 
/g7751 [75 67 true [1 0 0 1 -7 65 ]  0 0]
[<3fffffffffffffffff80
3fffffffffffffffff80
3fffffffffffffffff80
3fffffffffffffffff80
3fffffffffffffffff80
3fffffffffffffffff80
3fffffffffffffffff80
000000000ff000000000
000000000ff000000000
000000000ff000000000
000000000ff000000000
000000000ff000000000
000000000ff000000000
000000000ff000000000
000000000ff000000000
000000000ff000000000
000000000ff000000000
000000000ff000000000
000000000ff000000000
000000000ff000000000
000000000ff000000000
0007fc000ff000000000
0007f8000ff000000000
0007f8000ff000000000
0007f8000ff000000000
0007f8000ff000000000
0007f8000ff000000000
0007f8000ff000000000
0007f8000fffffffc000
0007f8000fffffffc000
0007f8000fffffffc000
0007f8000fffffffc000
0007f8000fffffffc000
0007f8000fffffffc000
0007f8000fffffffc000
0007f8000ff000000000
0007f8000ff000000000
0007f8000ff000000000
0007f8000ff000000000
0007f8000ff000000000
0007f8000ff000000000
0007f8000ff000000000
0007f8000ff000000000
0007f8000ff000000000
0007f8000ff000000000
0007f8000ff000000000
0007f8000ff000000000
0007f8000ff000000000
0007f8000ff000000000
0007f8000ff000000000
0007f8000ff000000000
0007f8000ff000000000
0007f8000ff000000000
0007f8000ff000000000
0007f8000ff000000000
0007f8000ff000000000
0007f8000ff000000000
0007f8000ff000000000
0007f8000ff000000000
0007f8000ff000000000
ffffffffffffffffffe0
ffffffffffffffffffe0
ffffffffffffffffffe0
ffffffffffffffffffe0
ffffffffffffffffffe0
ffffffffffffffffffe0
ffffffffffffffffffe0
>
 ]
/TT54b00 AddT3T32Char

35
/g12430 [90 0 4 -73 85 8 ] 
/g12430 [81 81 true [1 0 0 1 -4 73 ]  0 0]
[<0000e00000000000000000
0000fe0000000000000000
0001fc0000000000000000
0001f80000000000000000
0001f803001ffffffffc00
0003ffff801ffffffff800
0003ffffe01ffffffff800
0007fffff01ffffffff800
0007fffff81ffffffff800
0007fffff01ffffffff800
000fffffe00003f001f800
000fe00fe00003f001f800
001fc00fc00003f001f800
001fc01fc00003f001f800
003fc01f800007f001f800
003f803f000007f003f800
007f803f000007e003f800
007f007e00000fe003f000
00ff007e00000fe003f000
00fe00fc00001fc003f000
01fc00fc00003fc003f000
03fffffffe007f8003f000
03fffffffe00ff8003f000
07fffffffe01ff0007f000
0ffffffffe03fe0ffff000
1ffffffffe0ffc0ffff000
1ffffffffe3ffc0ffff000
3ffc07c07e7ff80fffe000
7ffc07c07e3fe00fffe000
fffc07c07e3fc007ffc000
fffc07c07e1f8007ff8000
fefc07c07e1e0000000000
7efc07c07e080000000000
3cfc07c07e000000000000
38fc07c07e00001fc00000
10fc07c07e00701fc00000
00fffffffe007f1f800000
00fffffffe007f1f800000
00fffffffe007e1f800000
00fffffffe007e1f800000
00fffffffe00fc1f800000
00fffffffe00fc1f800000
00fc07c07e00fc1f800000
00fc07c07e01fffffffc00
00fc07c07e01fffffffc00
00fc07c07e03fffffffc00
00fc07c07e03fffffffc00
00fc07c07e07fffffffc00
00fc07c07e07fffffffc00
00fc07c07e0ffffffffc00
00fc07c07e1fe01f800000
00fc07c07e1fc01f800000
00fffffffe1fc01f800000
00fffffffe07801f800000
00fffffffe03001f800000
00fffffffe01001f800000
00fffffffe00001f800000
00fffffffe00001f800000
00fc00007e3fffffffff80
00fc00007e3fffffffff80
00fc00007e3fffffffff80
01fc00007e3fffffffff80
01fc00007e3fffffffff80
01fc00007e3fffffffff80
01f800007e3fffffffff80
01f800007e00001f800000
03f800007e00001f800000
03f800007e00001f800000
03f800007e00001f800000
07f000007e00001f800000
07f000007e00001f800000
0ff000007e00001f800000
0fe000007e00001f800000
1fe000007e00001f800000
1fc0007ffe00001f800000
3fc0007ffe00001f800000
3f80007ffe00001f800000
1f80007ffe00001f800000
0f00007ffc00001f800000
0600003ffc00001f800000
0000003ff800001f800000
>
 ]
/TT54b00 AddT3T32Char
T32RsrcEnd
1220 317 M (")S 
1310 317 M (#)S  1400 317 M <07>S  1490 317 M <08>S  1580 317 M <02>S  
1710 317 M <07>S 
1800 317 M <08>S  1890 317 M <02>S  
2130 317 M (")S 
2220 317 M (#)S  2310 317 M <07>S  2400 317 M <08>S  2490 317 M <02>S  
2615 317 M <07>S 
2705 317 M <08>S  2795 317 M <02>S  
3015 317 M (")S 
3105 317 M (#)S  3195 317 M <07>S  3285 317 M <08>S  3375 317 M <02>S  
T32RsrcBegin

36
/g16093 [45 0 9 -62 28 -1 ] 
/g16093 [19 61 true [1 0 0 1 -9 62 ]  0 0]
[<0001e0
0001e0
0003e0
0003e0
0007e0
0007e0
000fe0
001fe0
007fe0
03ffe0
ffffe0
ffffe0
ffffe0
ffffe0
ffffe0
001fe0
001fe0
001fe0
001fe0
001fe0
001fe0
001fe0
001fe0
001fe0
001fe0
001fe0
001fe0
001fe0
001fe0
001fe0
001fe0
001fe0
001fe0
001fe0
001fe0
001fe0
001fe0
001fe0
001fe0
001fe0
001fe0
001fe0
001fe0
001fe0
001fe0
001fe0
001fe0
001fe0
001fe0
001fe0
001fe0
001fe0
001fe0
001fe0
001fe0
001fe0
001fe0
001fe0
001fe0
001fe0
001fe0
>
 ]
/TT54b00 AddT3T32Char
T32RsrcEnd
340 427 M ($)S 
740 427 M ($)S 
1140 427 M ($)S 
1630 427 M ($)S 
2050 427 M ($)S 
2535 427 M ($)S 
2935 427 M ($)S 
3420 427 M ($)S 
T32RsrcBegin

37
/g16095 [45 0 5 -62 40 0 ] 
/g16095 [35 62 true [1 0 0 1 -5 62 ]  0 0]
[<0003fc0000
001fff8000
007fffe000
00fffff000
03fffffc00
07fffffe00
07ff9ffe00
0ffc03ff00
1ff001ff80
1fe000ff80
3fe0007f80
3fc0007fc0
3fc0007fc0
7f80003fc0
7f80003fc0
7f80003fc0
7f80003fc0
7f80003fc0
0000003fc0
0000003fc0
0000007fc0
0000007f80
000000ff80
000000ff80
000001ff00
000007fe00
00001ffc00
0001fff800
0001fff000
0001ffc000
0001fff000
0001fffc00
0001fffe00
000007ff00
000001ff80
000000ff80
0000007fc0
0000003fc0
0000003fe0
0000003fe0
0000001fe0
0000001fe0
ff00001fe0
ff00001fe0
ff00001fe0
ff00001fe0
ff00001fe0
ff00001fe0
ff00003fe0
ff80003fe0
7f80007fc0
7fc0007fc0
7fe000ffc0
3ff003ff80
1ffc0fff00
1fffffff00
0ffffffe00
07fffffc00
01fffff000
00ffffe000
003fff0000
0003f00000
>
 ]
/TT54b00 AddT3T32Char
T32RsrcEnd
340 537 M (%)S 
740 537 M ($)S 
1140 537 M <12>S 
1630 537 M <12>S 
2050 537 M <12>S 
2535 537 M <12>S 
2935 537 M <12>S 
3420 537 M <12>S 
340 647 M <16>S 
740 647 M ($)S 
1140 647 M ($)S 
1630 647 M ($)S 
2050 647 M ($)S 
2535 647 M ($)S 
2935 647 M ($)S 
3420 647 M ($)S 
T32RsrcBegin

38
/g16098 [45 0 5 -62 40 0 ] 
/g16098 [35 62 true [1 0 0 1 -5 62 ]  0 0]
[<0001fe0000
000fffc000
001ffff000
007ffff800
00fffffc00
01fffffe00
03ffffff00
03ff03ff00
07fc00ff80
07f8007f80
0ff0007fc0
0ff0003fc0
1fe0003fc0
1fe0003fc0
3fc0003fc0
3fc0003fc0
3f80000000
7f80000000
7f80000000
7f80000000
7f80000000
7f01ff0000
7f07ffc000
ff0ffff000
ff1ffff800
ff3ffffc00
ff7ffffe00
ff7f0fff00
fffc03ff00
fff801ff80
fff000ff80
ffe0007fc0
ffc0007fc0
ffc0003fc0
ffc0003fe0
ff80003fe0
ff80003fe0
ff80003fe0
ff80001fe0
ff80001fe0
ff80001fe0
ff80001fe0
7f80001fe0
7f80001fe0
7f80003fe0
7f80003fe0
7f80003fe0
3fc0003fc0
3fc0003fc0
3fe0003fc0
1fe0007fc0
1ff0007f80
1ff800ff80
0ffc01ff00
07fe03ff00
07fffffe00
03fffffc00
01fffff800
007ffff000
003fffe000
000fff8000
0000f00000
>
 ]
/TT54b00 AddT3T32Char
T32RsrcEnd
340 757 M (&)S 
695 757 M ($)S 
740 757 M (%)S  
1095 757 M ($)S 
1140 757 M ($)S  
1630 757 M (&)S 
T32RsrcBegin

39
/g16096 [45 0 3 -62 42 -1 ] 
/g16096 [39 61 true [1 0 0 1 -3 62 ]  0 0]
[<000001ff00
000001ff00
000003ff00
000003ff00
000007ff00
00000fff00
00000fff00
00001fff00
00001fff00
00003fff00
00007fff00
00007fff00
0000ffff00
0001ffff00
0001feff00
0003fcff00
0003fcff00
0007f8ff00
000ff0ff00
000ff0ff00
001fe0ff00
001fe0ff00
003fc0ff00
007f80ff00
007f80ff00
00ff00ff00
00ff00ff00
01fe00ff00
03fc00ff00
03fc00ff00
07f800ff00
0ff000ff00
0ff000ff00
1fe000ff00
1fe000ff00
3fc000ff00
7f8000ff00
7f8000ff00
ff0000ff00
fffffffffe
fffffffffe
fffffffffe
fffffffffe
fffffffffe
fffffffffe
fffffffffe
000000ff00
000000ff00
000000ff00
000000ff00
000000ff00
000000ff00
000000ff00
000000ff00
000000ff00
000000ff00
000000ff00
000000ff00
000000ff00
000000ff00
000000ff00
>
 ]
/TT54b00 AddT3T32Char
T32RsrcEnd
2005 757 M ($)S 
2050 757 M (')S  
T32RsrcBegin

40
/g16099 [45 0 6 -61 39 -1 ] 
/g16099 [33 60 true [1 0 0 1 -6 61 ]  0 0]
[<ffffffff80
ffffffff80
ffffffff80
ffffffff80
ffffffff80
ffffffff80
ffffffff80
0000007f80
0000007f80
0000007f80
000000ff00
000000ff00
000000ff00
000000fe00
000001fe00
000001fe00
000001fc00
000003fc00
000003fc00
000003fc00
000007f800
000007f800
000007f800
00000ff000
00000ff000
00000ff000
00001fe000
00001fe000
00001fe000
00003fc000
00003fc000
00003fc000
00007f8000
00007f8000
00007f8000
00007f0000
0000ff0000
0000ff0000
0000fe0000
0001fe0000
0001fe0000
0001fc0000
0003fc0000
0003fc0000
0003f80000
0007f80000
0007f80000
0007f80000
000ff00000
000ff00000
000ff00000
001fe00000
001fe00000
001fe00000
003fc00000
003fc00000
003fc00000
003f800000
007f800000
007f800000
>
 ]
/TT54b00 AddT3T32Char
T32RsrcEnd
2535 757 M (\()S 
2935 757 M <12>S 
3420 757 M <12>S 
T32RsrcBegin

41
/g16100 [45 0 4 -62 41 0 ] 
/g16100 [37 62 true [1 0 0 1 -4 62 ]  0 0]
[<0003fe0000
001fffc000
007ffff000
00fffff800
01fffffc00
03fffffe00
07ffdfff00
0ffc01ff80
0ff800ff80
1ff0007fc0
1fe0003fc0
1fe0003fc0
3fc0001fe0
3fc0001fe0
3fc0001fe0
3fc0001fe0
3fc0001fe0
3fc0001fe0
3fc0001fe0
3fc0001fe0
3fc0001fe0
1fc0001fc0
1fe0003fc0
0ff0003fc0
0ff0007f80
07f800ff00
03fe03fe00
01fffffc00
00fffff800
003fffe000
003fffe000
01fffffc00
03fffffe00
07ff03ff00
0ff800ff80
1ff0007fc0
3fe0003fe0
3fc0001fe0
7f80000ff0
7f80000ff0
7f80000ff0
7f80000ff0
ff000007f8
ff000007f8
ff000007f8
ff000007f8
ff000007f8
ff80000ff8
7f80000ff0
7f80000ff0
7fc0001ff0
7fe0003ff0
3fe0003fe0
3ff800ffe0
1ffc01ffc0
0fffffff80
07ffffff00
03fffffe00
01fffffc00
00fffff800
001fffc000
0000f80000
>
 ]
/TT54b00 AddT3T32Char
T32RsrcEnd
340 867 M (\))S 
740 867 M ($)S 
1140 867 M ($)S 
1630 867 M ($)S 
2050 867 M <14>S 
2535 867 M ($)S 
2935 867 M <12>S 
3420 867 M <12>S 
340 977 M <14>S 
740 977 M ($)S 
T32RsrcBegin

42
/g16094 [45 0 5 -62 40 -1 ] 
/g16094 [35 61 true [1 0 0 1 -5 62 ]  0 0]
[<0003fc0000
001fff8000
007fffe000
00fffff000
01fffffc00
03fffffe00
07fffffe00
0ffe07ff00
0ff801ff80
1ff000ff80
1ff000ffc0
3fe0007fc0
3fe0007fc0
3fc0003fc0
3fc0003fc0
7fc0003fc0
7f80003fc0
7f80003fc0
7f80003fc0
7f80003fc0
7f80007fc0
0000007fc0
0000007f80
000000ff80
000000ff80
000001ff00
000003ff00
000003fe00
000007fe00
00000ffc00
00001ff800
00003ff000
00007ff000
0000ffe000
0001ffc000
0003ff8000
0007ff0000
0007fe0000
000ffc0000
001ffc0000
003ff80000
007ff00000
00ffe00000
01ffc00000
03ff800000
07ff000000
0ffe000000
0ffc000000
1ff8000000
3ff8000000
3ff0000000
7fe0000000
ffc0000000
ffc0000000
ffffffffe0
ffffffffe0
ffffffffe0
ffffffffe0
ffffffffe0
ffffffffe0
ffffffffe0
>
 ]
/TT54b00 AddT3T32Char
T32RsrcEnd
1140 977 M (*)S 
1630 977 M ($)S 
2050 977 M (*)S 
2535 977 M ($)S 
2890 977 M (*)S 
2935 977 M (\()S  
3420 977 M ($)S 
295 1087 M ($)S 
340 1087 M <12>S  
740 1087 M (%)S 
1140 1087 M (%)S 
1630 1087 M (%)S 
2050 1087 M (%)S 
2535 1087 M (%)S 
2890 1087 M (\()S 
2935 1087 M (%)S  
3420 1087 M (%)S 
295 1197 M ($)S 
340 1197 M ($)S  
740 1197 M ($)S 
1140 1197 M <12>S 
1630 1197 M <12>S 
2050 1197 M <12>S 
2535 1197 M <12>S 
2935 1197 M (*)S 
3420 1197 M ($)S 
295 1307 M ($)S 
340 1307 M (*)S  
740 1307 M ($)S 
1140 1307 M <12>S 
1630 1307 M <12>S 
2050 1307 M <12>S 
2535 1307 M <12>S 
2935 1307 M <12>S 
3420 1307 M <12>S 
295 1417 M ($)S 
340 1417 M (')S  
740 1417 M (%)S 
1140 1417 M <12>S 
1630 1417 M <12>S 
2050 1417 M ($)S 
2535 1417 M <12>S 
2935 1417 M (%)S 
3420 1417 M (%)S 
295 1527 M ($)S 
340 1527 M <16>S  
740 1527 M ($)S 
1140 1527 M ($)S 
1630 1527 M ($)S 
2050 1527 M ($)S 
2535 1527 M ($)S 
2935 1527 M (%)S 
3420 1527 M ($)S 
295 1637 M ($)S 
340 1637 M (&)S  
740 1637 M ($)S 
1140 1637 M ($)S 
1630 1637 M ($)S 
2050 1637 M ($)S 
2535 1637 M ($)S 
2935 1637 M ($)S 
3420 1637 M ($)S 
295 1747 M ($)S 
340 1747 M (\))S  
740 1747 M (*)S 
1140 1747 M <12>S 
1630 1747 M <12>S 
2050 1747 M <12>S 
2535 1747 M <12>S 
2935 1747 M (*)S 
3420 1747 M (*)S 
295 1857 M ($)S 
340 1857 M <14>S  
740 1857 M ($)S 
1140 1857 M <12>S 
1630 1857 M <12>S 
2050 1857 M (*)S 
2535 1857 M ($)S 
2935 1857 M <12>S 
3420 1857 M <12>S 
295 1967 M (*)S 
340 1967 M (*)S  
740 1967 M ($)S 
1140 1967 M <12>S 
1630 1967 M <12>S 
2050 1967 M <12>S 
2535 1967 M <12>S 
2935 1967 M (%)S 
3420 1967 M ($)S 
295 2077 M (*)S 
340 2077 M (%)S  
740 2077 M ($)S 
1140 2077 M <12>S 
1630 2077 M <12>S 
2050 2077 M (*)S 
2535 2077 M ($)S 
2935 2077 M <12>S 
3420 2077 M <12>S 
295 2187 M (*)S 
340 2187 M <16>S  
740 2187 M ($)S 
1140 2187 M <12>S 
1630 2187 M <12>S 
2050 2187 M (*)S 
2535 2187 M <12>S 
2935 2187 M (%)S 
3420 2187 M ($)S 
295 2297 M (*)S 
340 2297 M (\()S  
740 2297 M ($)S 
1140 2297 M <12>S 
1630 2297 M <12>S 
2005 2297 M (*)S 
2050 2297 M (&)S  
2535 2297 M ($)S 
2890 2297 M (%)S 
2935 2297 M <12>S  
3420 2297 M ($)S 
295 2407 M (*)S 
340 2407 M (\))S  
740 2407 M (*)S 
1140 2407 M <12>S 
1630 2407 M <12>S 
2050 2407 M <12>S 
2535 2407 M <12>S 
2935 2407 M <12>S 
3420 2407 M <12>S 
295 2517 M (%)S 
340 2517 M (%)S  
740 2517 M ($)S 
1140 2517 M <12>S 
1630 2517 M <12>S 
2050 2517 M <12>S 
2535 2517 M <12>S 
2935 2517 M ($)S 
3420 2517 M ($)S 
295 2627 M (%)S 
340 2627 M <16>S  
740 2627 M ($)S 
1140 2627 M <12>S 
1630 2627 M <12>S 
2050 2627 M ($)S 
2535 2627 M ($)S 
2935 2627 M (\()S 
3420 2627 M ($)S 
295 2736 M (%)S 
340 2736 M (&)S  
740 2736 M (*)S 
1140 2736 M <16>S 
1630 2736 M (*)S 
2005 2736 M (')S 
2050 2736 M (&)S  
2535 2736 M (*)S 
2935 2736 M <12>S 
3420 2736 M <12>S 
295 2846 M (%)S 
340 2846 M (\()S  
740 2846 M ($)S 
1140 2846 M <12>S 
1630 2846 M <12>S 
2050 2846 M <12>S 
2535 2846 M <12>S 
2935 2846 M <12>S 
3420 2846 M <12>S 
295 2956 M (%)S 
340 2956 M (\))S  
740 2956 M ($)S 
1140 2956 M <12>S 
1630 2956 M <12>S 
2050 2956 M <12>S 
2535 2956 M <12>S 
2935 2956 M (*)S 
3420 2956 M ($)S 
295 3066 M (%)S 
340 3066 M <14>S  
740 3066 M ($)S 
1140 3066 M (%)S 
1630 3066 M ($)S 
2050 3066 M <14>S 
2535 3066 M ($)S 
2890 3066 M ($)S 
2935 3066 M (%)S  
3420 3066 M ($)S 
295 3176 M (')S 
340 3176 M ($)S  
740 3176 M ($)S 
1140 3176 M ($)S 
1630 3176 M ($)S 
2050 3176 M (')S 
2535 3176 M ($)S 
2890 3176 M (*)S 
2935 3176 M <14>S  
3420 3176 M ($)S 
295 3286 M (')S 
340 3286 M (*)S  
740 3286 M ($)S 
1140 3286 M <12>S 
1630 3286 M <12>S 
2050 3286 M <12>S 
2535 3286 M <12>S 
2845 3286 M (*)S 
2890 3286 M ($)S  2935 3286 M (\))S  
3420 3286 M ($)S 
295 3396 M (')S 
340 3396 M (%)S  
740 3396 M ($)S 
1140 3396 M <12>S 
1630 3396 M <12>S 
2050 3396 M <12>S 
2535 3396 M <12>S 
2935 3396 M (*)S 
3420 3396 M ($)S 
295 3506 M (')S 
340 3506 M (')S  
740 3506 M ($)S 
1140 3506 M <12>S 
1630 3506 M <12>S 
2050 3506 M ($)S 
2535 3506 M ($)S 
2935 3506 M <12>S 
3420 3506 M <12>S 
295 3616 M (')S 
340 3616 M <16>S  
740 3616 M ($)S 
1140 3616 M <12>S 
1630 3616 M <12>S 
2050 3616 M ($)S 
2535 3616 M ($)S 
2935 3616 M ($)S 
3420 3616 M ($)S 
295 3726 M (')S 
340 3726 M (&)S  
740 3726 M ($)S 
1140 3726 M ($)S 
1630 3726 M ($)S 
2050 3726 M ($)S 
2535 3726 M ($)S 
2935 3726 M <12>S 
3420 3726 M <12>S 
295 3836 M (')S 
340 3836 M (\()S  
740 3836 M ($)S 
1140 3836 M ($)S 
1630 3836 M ($)S 
2050 3836 M ($)S 
2535 3836 M ($)S 
2935 3836 M ($)S 
3420 3836 M ($)S 
295 3946 M (')S 
340 3946 M (\))S  
740 3946 M ($)S 
1140 3946 M <12>S 
1630 3946 M <12>S 
2050 3946 M <12>S 
2535 3946 M <12>S 
2890 3946 M ($)S 
2935 3946 M <16>S  
3420 3946 M ($)S 
295 4056 M (')S 
340 4056 M <14>S  
740 4056 M ($)S 
1140 4056 M <12>S 
1630 4056 M <12>S 
2050 4056 M <16>S 
2535 4056 M <12>S 
2935 4056 M ($)S 
3420 4056 M ($)S 
295 4166 M <16>S 
340 4166 M <12>S  
740 4166 M ($)S 
1140 4166 M (\()S 
1630 4166 M ($)S 
2005 4166 M (*)S 
2050 4166 M <12>S  
2535 4166 M ($)S 
2935 4166 M ($)S 
3420 4166 M ($)S 
295 4276 M <16>S 
340 4276 M ($)S  
740 4276 M ($)S 
1140 4276 M ($)S 
1630 4276 M ($)S 
2050 4276 M (&)S 
2535 4276 M ($)S 
2935 4276 M (*)S 
3420 4276 M ($)S 
295 4386 M <16>S 
340 4386 M (*)S  
740 4386 M ($)S 
1140 4386 M ($)S 
1630 4386 M ($)S 
1960 4386 M ($)S 
2005 4386 M (%)S  2050 4386 M (%)S  
2535 4386 M ($)S 
2935 4386 M (&)S 
3420 4386 M ($)S 
295 4496 M <16>S 
340 4496 M (%)S  
740 4496 M (*)S 
1140 4496 M <12>S 
1630 4496 M <12>S 
2050 4496 M <12>S 
2535 4496 M <12>S 
2935 4496 M ($)S 
3420 4496 M <12>S 
T32RsrcBegin

43
/g12451 [90 0 5 -72 85 7 ] 
/g12451 [80 79 true [1 0 0 1 -5 72 ]  0 0]
[<00000000000001fe0000
00000000000001fe0000
01fffffe000001fc0000
01fffffe000001fc0000
01fffffe000001fc0000
01fffffe000001fc0000
01fffffe000001fc0000
01fffffe000001fc0000
01fffffe000001fc0000
00000000000001fc0000
00000000000001fc0000
00000000000001fc0000
00000000000001fc0000
00000000000001fc0000
00000000000001fc0000
fffffffff80001fc0000
fffffffff80001fc0000
fffffffff80001fc0000
fffffffff80001fc0000
fffffffff80001fc0000
fffffffff80001fc0000
fffffffff80001fc0000
00000000000001fc0000
00000000000001fc0000
00000000000001fc0000
00000000000001fc0000
01fffffe000001fc0000
01fffffe000001fc0000
01fffffe0fffffffffff
01fffffe0fffffffffff
01fffffe0fffffffffff
01fffffe0fffffffffff
01fffffe0fffffffffff
000000000fffffffffff
000000000fffffffffff
00000000000001fc0000
00000000000001fc0000
00000000000001fc0000
01fffffe000001fc0000
01fffffe000001fc0000
01fffffe000001fc0000
01fffffe000001fc0000
01fffffe000001fc0000
01fffffe000001fc0000
01fffffe000001fc0000
00000000000001fc0000
00000000000001fc0000
00000000000001fc0000
00000000000001fc0000
00000000000001fc0000
07ffffff800001fc0000
07ffffff800001fc0000
07ffffff800001fc0000
07ffffff800001fc0000
07ffffff800001fc0000
07ffffff800001fc0000
07f0003f800001fc0000
07f0003f800001fc0000
07f0003f800001fc0000
07f0003f800001fc0000
07f0003f800001fc0000
07f0003f800001fc0000
07f0003f800001fc0000
07f0003f800001fc0000
07f0003f800001fc0000
07f0003f800001fc0000
07f0003f800001fc0000
07f0003f800001fc0000
07ffffff800001fc0000
07ffffff800001fc0000
07ffffff800001fc0000
07ffffff800001fc0000
07ffffff800001fc0000
07ffffff800001fc0000
07f0003f800001fc0000
07f0003f800001fc0000
07f0003f800001fc0000
07f00000000001fc0000
07f00000000000000000
>
 ]
/TT54b00 AddT3T32Char
T32RsrcEnd
20 4606 M (+)S 
695 4606 M <16>S 
740 4606 M (\))S  
1095 4606 M (')S 
1140 4606 M ($)S  
1585 4606 M (*)S 
1630 4606 M (')S  
1960 4606 M (*)S 
2005 4606 M <14>S  2050 4606 M (%)S  
2490 4606 M (%)S 
2535 4606 M ($)S  
2845 4606 M (')S 
2890 4606 M (')S  2935 4606 M <14>S  
3375 4606 M (%)S 
3420 4606 M ($)S  
Pscript_WinNT_Incr begin
%%BeginResource: file Pscript_Win_GdiObject 5.0 0
/SavedCTM null d/CTMsave{/SavedCTM SavedCTM currentmatrix d}b/CTMrestore
{SavedCTM setmatrix}b/mp null d/ADO_mxRot null d/GDIHMatrix null d
/GDIHPatternDict 22 dict d GDIHPatternDict `/PatternType 1 d/PaintType 2 d/Reps
L2?{1}{5}? d/XStep 8 Reps mul d/YStep XStep d/BBox[0 0 XStep YStep]d/TilingType
1 d/PaintProc{` 1 Lw[]0 sd PaintData , exec E}b/FGnd null d/BGnd null d
/HS_Horizontal{horiz}b/HS_Vertical{vert}b/HS_FDiagonal{fdiag}b/HS_BDiagonal
{biag}b/HS_Cross{horiz vert}b/HS_DiagCross{fdiag biag}b/MaxXYStep XStep YStep
gt{XStep}{YStep}? d/horiz{Reps{0 4 M XStep 0 - 0 8 +}repeat 0 -8 Reps mul + K}b
/vert{Reps{4 0 M 0 YStep - 8 0 +}repeat 0 -8 Reps mul + K}b/biag{Reps{0 0 M
MaxXYStep @ - 0 YStep neg M MaxXYStep @ - 0 8 +}repeat 0 -8 Reps mul + 0 YStep
M 8 8 - K}b/fdiag{Reps{0 0 M MaxXYStep @ neg - 0 YStep M MaxXYStep @ neg - 0 8
+}repeat 0 -8 Reps mul + MaxXYStep @ M 8 -8 - K}b E/makehatch{4 -2 $/yOrg ~ d
/xOrg ~ d GDIHPatternDict/PaintData 3 -1 $ put CTMsave GDIHMatrix setmatrix
GDIHPatternDict matrix xOrg yOrg + mp CTMrestore ~ U ~ 2 ^ put}b/h0{/h0
/HS_Horizontal makehatch}b/h1{/h1/HS_Vertical makehatch}b/h2{/h2/HS_FDiagonal
makehatch}b/h3{/h3/HS_BDiagonal makehatch}b/h4{/h4/HS_Cross makehatch}b/h5{/h5
/HS_DiagCross makehatch}b/GDIBWPatternMx null d/pfprep{save 8 1 $
/PatternOfTheDay 8 1 $ GDIBWPatternDict `/yOrg ~ d/xOrg ~ d/PaintData ~ d/yExt
~ d/Width ~ d/BGnd ~ d/FGnd ~ d/Height yExt RepsV mul d/mx[Width 0 0 Height 0
0]d E build_pattern ~ !}b/pfbf{/fEOFill ~ d pfprep hbf fEOFill{O}{L}? restore}b
/GraphInit{GDIHMatrix null eq{/SavedCTM matrix d : ADO_mxRot concat 0 0 snap +
: 0.48 @ GDIHPatternDict ` YStep mul ~ XStep mul ~ nonzero_dsnap YStep V ~
XStep V ~ E +S/GDIHMatrix matrix currentmatrix readonly d ; : 0.24 -0.24 +S
GDIBWPatternDict ` Width Height E nonzero_dsnap +S/GDIBWPatternMx matrix
currentmatrix readonly d ; ;}if}b
%%EndResource
%%BeginResource: file Pscript_Win_GdiObject_L1 5.0 0
/GDIBWPatternDict 25 dict @ `/PatternType 1 d/PaintType 2 d/RepsV 6 d/RepsH 5 d
/BBox[0 0 RepsH 1]d/TilingType 1 d/XStep 1 d/YStep 1 d/Height 8 RepsV mul d
/Width 8 d/mx[Width 0 0 Height neg 0 Height]d/FGnd null d/BGnd null d
/SetBGndFGnd{}b/PaintProc{` SetBGndFGnd RepsH{Width Height F mx PaintData
imagemask Width 0 +}repeat E}b E d/GDIpattfill{@ ` BGnd null ne PaintType 2 eq
and{: BGnd aload ! scol fEOFill{O}{L}? ; FGnd aload ! U/iCol 2 ^ put @ 0 eq{!
2}{@ 1 eq ~ 2 eq or{4}{5}?}? -1 $}if E @ patterncalc : 4 ^/PaintType get 2 eq
{iCol 0 eq{6 -1 $}if iCol 1 eq iCol 2 eq or{8 -3 $}if iCol 3 eq iCol 4 eq or{9
-4 $}if iCol scol}if fEOFill{eoclip}{clip}? N patternfill ; N}b/hbf
{GDIpattfill}b/hfMain{/fEOFill ~ d ~/iCol ~ d GDIpattfill}b/hf{: hfMain ;}b
/mpstr 1 string d/mp{~ @ length 12 add dict copy `/PatternCTM matrix
currentmatrix d/PatternMatrix ~ d/PatWidth XStep mpstr length mul d/PatHeight
YStep d/FontType 3 d/Encoding 256 array d 3 string 0 1 255{Encoding ~ @ 3 ^ cvs
cvn put}for !/FontMatrix matrix d/FontBBox BBox d/BuildChar{! @ ` XStep 0
FontBBox aload ! setcachedevice/PaintProc , E : exec ;}b & E ~ @ 3 -1 $
definefont}b/build_pattern{: GDIBWPatternDict ` Width Height E dsnap +S
/GDIBWPatternMx matrix currentmatrix d ; CTMsave GDIBWPatternMx setmatrix
GDIBWPatternDict @ ` xOrg yOrg E matrix + mp CTMrestore}b/patterncalc{` :
PatternCTM setmatrix PatternMatrix concat BBox aload ! ! ! + pathbbox ;
PatHeight V ceiling 4 1 $ PatWidth V ceiling 4 1 $ PatHeight V floor 4 1 $
PatWidth V floor 4 1 $ 2 ^ sub cvi abs ~ 3 ^ sub cvi abs ~ 4 2 $ PatHeight mul
~ PatWidth mul ~ E}b/patternfill{5 -1 $ @ ` Ji PatternCTM setmatrix
PatternMatrix concat 0 2 ^ 2 ^ M 0 1 mpstr length 1 sub{1 ^ mpstr 3 1 $ put}for
! 2 ^{currentpoint 5 ^{mpstr S}repeat YStep add M}repeat ! ! ! ! E}b/pbf{: 14
dict `/fGray ~ d/fEOFill ~ d/yOrg ~ d/xOrg ~ d/PaintData ~ d/OutputBPP ~ d
/Height ~ d/Width ~ d/mx xOrg yOrg matrix + d fGray{/PaintProc{` Width Height
OutputBPP mx PaintData image E}b}{/PaintProc{` Width Height 8 mx PaintData F
OutputBPP 8 idiv colorimage E}b}? pathbbox fEOFill{eoclip}{clip}?/Top ~ d/Right
~ d/Bottom ~ d/Left ~ d Top Height neg Bottom 1 sub{Left Width Right 1 sub{1 ^
2 copy + & PaintProc neg ~ neg ~ +}bind for !}bind for E ;}b
%%EndResource
end reinitialize
0.832 0.832 0.832 1 scol N 1689 0 M 1689 5 I K 
: N 1690 0 5 5 rp C 
 L ; N 1199 0 M 1199 5 I K 
: N 1200 0 5 5 rp C 
 L ; : 0 0 1 4623 rc N 0 0 M 0 4629 I K 
; : N 0 0 5 4623 rp C 
 L ; : 400 0 1 4623 rc N 400 0 M 400 4629 I K 
; : N 400 0 5 4623 rp C 
 L ; : 800 0 1 4623 rc N 800 0 M 800 4629 I K 
; : N 800 0 5 4623 rp C 
 L ; : 1199 224 2 4399 rc N 1199 224 M 1199 4629 I K 
; : N 1200 225 5 4398 rp C 
 L ; : 1689 115 2 4508 rc N 1689 115 M 1689 4629 I K 
; : N 1690 115 5 4508 rp C 
 L ; : 2109 0 2 4623 rc N 2109 0 M 2109 4629 I K 
; : N 2110 0 5 4623 rp C 
 L ; : 2594 0 2 4623 rc N 2594 0 M 2594 4629 I K 
; : N 2595 0 5 4623 rp C 
 L ; : 2994 0 2 4623 rc N 2994 0 M 2994 4629 I K 
; : N 2995 0 5 4623 rp C 
 L ; : 3479 0 2 4623 rc N 3479 0 M 3479 4629 I K 
; : N 3480 0 4 4623 rp C 
 L ; : 0 0 3484 1 rc N 0 0 M 3489 0 I K 
; : N 0 0 3484 5 rp C 
 L ; : 0 110 3484 1 rc N 0 110 M 3489 110 I K 
; : N 0 110 3484 5 rp C 
 L ; : 0 219 3484 2 rc N 0 219 M 3489 219 I K 
; : N 0 220 3484 5 rp C 
 L ; : 0 329 3484 2 rc N 0 329 M 3489 329 I K 
; : N 0 330 3484 5 rp C 
 L ; : 0 439 3484 2 rc N 0 439 M 3489 439 I K 
; : N 0 440 3484 5 rp C 
 L ; : 0 549 3484 2 rc N 0 549 M 3489 549 I K 
; : N 0 550 3484 5 rp C 
 L ; : 0 659 3484 2 rc N 0 659 M 3489 659 I K 
; : N 0 660 3484 5 rp C 
 L ; : 0 769 3484 2 rc N 0 769 M 3489 769 I K 
; : N 0 770 3484 5 rp C 
 L ; : 0 879 3484 2 rc N 0 879 M 3489 879 I K 
; : N 0 880 3484 5 rp C 
 L ; : 0 989 3484 2 rc N 0 989 M 3489 989 I K 
; : N 0 990 3484 5 rp C 
 L ; : 0 1099 3484 2 rc N 0 1099 M 3489 1099 I K 
; : N 0 1100 3484 5 rp C 
 L ; : 0 1209 3484 2 rc N 0 1209 M 3489 1209 I K 
; : N 0 1210 3484 5 rp C 
 L ; : 0 1319 3484 2 rc N 0 1319 M 3489 1319 I K 
; : N 0 1320 3484 5 rp C 
 L ; : 0 1429 3484 2 rc N 0 1429 M 3489 1429 I K 
; : N 0 1430 3484 5 rp C 
 L ; : 0 1539 3484 2 rc N 0 1539 M 3489 1539 I K 
; : N 0 1540 3484 5 rp C 
 L ; : 0 1649 3484 2 rc N 0 1649 M 3489 1649 I K 
; : N 0 1650 3484 5 rp C 
 L ; : 0 1759 3484 2 rc N 0 1759 M 3489 1759 I K 
; : N 0 1760 3484 5 rp C 
 L ; : 0 1869 3484 2 rc N 0 1869 M 3489 1869 I K 
; : N 0 1870 3484 5 rp C 
 L ; : 0 1979 3484 2 rc N 0 1979 M 3489 1979 I K 
; : N 0 1980 3484 5 rp C 
 L ; : 0 2089 3484 2 rc N 0 2089 M 3489 2089 I K 
; : N 0 2090 3484 5 rp C 
 L ; : 0 2199 3484 2 rc N 0 2199 M 3489 2199 I K 
; : N 0 2200 3484 5 rp C 
 L ; : 0 2309 3484 2 rc N 0 2309 M 3489 2309 I K 
; : N 0 2310 3484 5 rp C 
 L ; : 0 2419 3484 2 rc N 0 2419 M 3489 2419 I K 
; : N 0 2420 3484 5 rp C 
 L ; : 0 2529 3484 2 rc N 0 2529 M 3489 2529 I K 
; : N 0 2530 3484 5 rp C 
 L ; : 0 2639 3484 2 rc N 0 2639 M 3489 2639 I K 
; : N 0 2639 3484 5 rp C 
 L ; : 0 2749 3484 2 rc N 0 2749 M 3489 2749 I K 
; : N 0 2749 3484 5 rp C 
 L ; : 0 2859 3484 2 rc N 0 2859 M 3489 2859 I K 
; : N 0 2859 3484 5 rp C 
 L ; : 0 2969 3484 2 rc N 0 2969 M 3489 2969 I K 
; : N 0 2969 3484 5 rp C 
 L ; : 0 3079 3484 2 rc N 0 3079 M 3489 3079 I K 
; : N 0 3079 3484 5 rp C 
 L ; : 0 3189 3484 2 rc N 0 3189 M 3489 3189 I K 
; : N 0 3189 3484 5 rp C 
 L ; : 0 3299 3484 2 rc N 0 3299 M 3489 3299 I K 
; : N 0 3299 3484 5 rp C 
 L ; : 0 3409 3484 2 rc N 0 3409 M 3489 3409 I K 
; : N 0 3409 3484 5 rp C 
 L ; : 0 3519 3484 2 rc N 0 3519 M 3489 3519 I K 
; : N 0 3519 3484 5 rp C 
 L ; : 0 3629 3484 2 rc N 0 3629 M 3489 3629 I K 
; : N 0 3629 3484 5 rp C 
 L ; : 0 3739 3484 2 rc N 0 3739 M 3489 3739 I K 
; : N 0 3739 3484 5 rp C 
 L ; : 0 3849 3484 2 rc N 0 3849 M 3489 3849 I K 
; : N 0 3849 3484 5 rp C 
 L ; : 0 3959 3484 2 rc N 0 3959 M 3489 3959 I K 
; : N 0 3959 3484 5 rp C 
 L ; : 0 4069 3484 2 rc N 0 4069 M 3489 4069 I K 
; : N 0 4069 3484 5 rp C 
 L ; : 0 4179 3484 2 rc N 0 4179 M 3489 4179 I K 
; : N 0 4179 3484 5 rp C 
 L ; : 0 4289 3484 2 rc N 0 4289 M 3489 4289 I K 
; : N 0 4289 3484 5 rp C 
 L ; : 0 4399 3484 2 rc N 0 4399 M 3489 4399 I K 
; : N 0 4399 3484 5 rp C 
 L ; : 0 4509 3484 2 rc N 0 4509 M 3489 4509 I K 
; : N 0 4509 3484 5 rp C 
 L ; : 0 4619 3484 2 rc N 0 4619 M 3489 4619 I K 
; : N 0 4619 3484 4 rp C 
 L ; LH
%%PageTrailer

%%Trailer
%%DocumentNeededResources: 
%%DocumentSuppliedResources: 
%%+ procset Pscript_WinNT_VMErrorHandler 5.0 0
%%+ procset Pscript_FatalError 5.0 0
%%+ procset Pscript_Win_Basic 5.0 0
%%+ procset Pscript_Win_Utils_L1 5.0 0
%%+ procset Pscript_T3Hdr 5.0 0
%%+ procset Pscript_Text 5.0 0
%%+ procset Pscript_Win_GdiObject 5.0 0
%%+ procset Pscript_Win_GdiObject_L1 5.0 0
Pscript_WinNT_Incr dup /terminate get exec
%%EOF
